
sedentarisation_chaos = {
	potential = {
		technology_group = steppestech
		OR = {
			government = tribal_nomads_altaic
			government = tribal_nomads_steppe
			government = tribal_nomads
			government = tribal_nomads_hereditary
		}
	}
	
	
	can_start = {
		has_any_disaster = no
		NOT = { stability = 1 }
	}
	progress = {
		modifier = {
			NOT = { stability = 0 }
			factor = 5
		}
		modifier = {
			NOT = { stability = -1 }
			factor = 5
		}
		modifier = {
			NOT = { stability = -2 }
			factor = 5
		}
		modifier = {
			factor = 1.5
			NOT = { legitimacy_or_horde_unity = 50 }
		}
		modifier = {
			factor = 100
			has_country_flag = horde_sedentarisation_triggered
		}
	}
	can_end = {
		NOT = {
			has_spawned_rebels = noble_rebels
		}
		NOT = {
			has_spawned_rebels = pretender_rebels
		}
		stability = 1
	}
	
	modifier = {
		global_unrest = 5
		global_tax_modifier = -0.25
		discipline = -0.05
		global_manpower_modifier = -0.25
	}
	
	on_start = sedentarisation.001
	on_end = sedentarisation.901
	
	on_monthly = {
		events = {
			
		}
		random_events = {
			900 = 0
			50 = sedentarisation.101
			50 = sedentarisation.102
		}
	}
}
