# Do not change tags in here without changing every other reference to them.
# Do not change tags in here without changing every other reference to them.
# If adding new groups or ideas, make sure they are unique.

# ai_will do does not actually determine weighting, but AI will not pick an idea with ai_will_do = 0
# ROOT = country picking the idea
# groups set to colonial=yes will be higher prioritized by the AI when spending power

#Index
#ADM ideas (14)						#DIP ideas (13)						#MIL ideas (13)
#Administrative						#Aristocracy 						#Fortification
#Asceticism							#Culture 							#Grand Army
#Bureaucracy						#Democracy 							#Grand Fleet
#Ceremony							#Diplomacy 							#Leadership
#Economy							#Eminence 							#Logistics
#Empire								#Espionage 							#Mercenary
#Engineering						#Exploration 						#Naval
#Expansion							#Free Trade 						#Naval Leadership
#Global Empire						#Influence 							#Naval Quality
#Humanism							#Mercantilism 						#Professional Army
#Innovative							#Merchant Marine 					#Quality
#Popular Religion					#Plutocracy 						#Quantity
#Scholasticism						#Trade								#Standing Army
#State Religion (theology)

administrative_ideas = {
	category = ADM
	
	bonus = {
		yearly_corruption = -0.05
	}
	
	currency_standards = {
		inflation_action_cost = -0.15
	}
	mercenary_hiring = {
		merc_maintenance_modifier = -0.10
	}
	state_organization = {
		state_maintenance_modifier = -0.20
	}
	martial_administration = {
		land_maintenance_modifier = -0.05
	}
	fortification_maintenance = {
		fort_maintenance_modifier = -0.10
	}
	naval_administration = {
		naval_maintenance_modifier = -0.05
	}
	stable_prices = {
		inflation_reduction = 0.02
	}
	
	ai_will_do = {
		factor = 1
		modifier = {
			factor = 1.5
			inflation = 5
		}
		modifier = {
			factor = 1.5
			inflation = 10
		}
	}
}

aristocracy_ideas = {
	category = DIP
	
	trigger = {
		OR = {
			government = monarchy
			government = noble_republic
			government = theocratic_government
			government = monastic_order_government
			government = papal_government
		}
		NOT = { has_idea_group = plutocracy_ideas }
	}
	
	bonus = {
		vassal_forcelimit_bonus = 0.20
		vassal_income = 0.10
	}
	
	easy_claims = {
		fabricate_claims_cost = -0.15
	}
	international_nobility = {
		diplomatic_upkeep = 2
	}
	local_nobility = {
		devotion = 0.10
		legitimacy = 0.10
	}
	noble_resilience = {
		war_exhaustion = -0.01
	}
	noble_knights = {
		cavalry_flanking = 0.25
	}
	serfdom = {
		global_autonomy = -0.05
		max_absolutism = 5
	}
	noble_officers = {
		administrative_efficiency = 0.05
		free_leader_pool = 1
	}
	
	ai_will_do = {
		factor = 1
	}
}

asceticism_ideas = { #DG Asceticism
	category = ADM
	
	trigger = {
		OR = {
			religion = catholic
			religion = coptic
			religion = orthodox
			religion = gnostic
			religion = hinduism
			religion = vajrayana
			religion = mahayana
			religion = buddhism
			religion = jain
		}
	}
	
	bonus = {
		diplomatic_reputation = 1
		global_trade_goods_size_modifier = 0.05
	}
	
	charitable_work = {
		stability_cost_modifier = -0.20
	}
	interfaith_dialogue = {
		tolerance_heretic = 1
	}
	religious_settlements = {
		build_cost = -0.10
		prestige_per_development_from_conversion = 0.40
	}
	monastic_diversity = {
		missionaries = 1
		global_unrest = -1
	}
	missionary_work = {
		global_heretic_missionary_strength = 0.02
		global_missionary_strength = 0.01
	}
	devotion_idea = {
		tolerance_own = 1
	}
	fraternities = {
		production_efficiency = 0.20
	}
	
	ai_will_do = {
		factor = 0.7
		modifier = {
			piety = 0.60
			factor = 1.4
		}
		modifier = {
			NOT = { piety = -0.20 }
			government = monarchy
		}
		modifier = {
			NOT = { piety = -0.60 }
			factor = 0
		}
		modifier = {
			NOT = { piety = 0.20 }
			government = republic
			factor = 0
		}
		modifier = {
			NOT = { religious_unity = 50 }
			factor = 1.4
		}
		modifier = {
			NOT = { religious_unity = 80 }
			factor = 1.4
		}
		modifier = {
			NOT = { religious_unity = 60 }
			factor = 1.4
		}
		modifier = {
			government = republic
			factor = 0.5
		}
		modifier = {
			government = theocracy
			factor = 2
		}
	}
}

bureaucracy_ideas = {
	category = ADM
	
	bonus = {
		global_autonomy = -0.10
	}
	
	collaboration = {
		build_time = -0.20
		state_maintenance_modifier = -0.10
	}
	adaptability = {
		administrative_efficiency = 0.10
	}
	citizen_service = {
		core_creation = -0.10
	}
	corruption_fighting = {
		yearly_corruption = -0.05
	}
	civil_servants = {
		envoy_travel_time = -0.20
		max_states = 2
	}
	integration = {
		num_accepted_cultures = 1
	}
	centralization = {
		max_absolutism = 10
	}
	
	ai_will_do = {
		factor = 1
		modifier = {
			factor = 1.5
			inflation = 5
		}
		modifier = {
			factor = 1.5
			inflation = 10
		}
	}
}

ceremony_ideas = { #DG Prophecy
	category = ADM
	
	trigger = {
		NOT = {
			OR = {
				religion = catholic
				religion = coptic
				religion = orthodox
				religion = gnostic
				religion = hinduism
				religion = vajrayana
				religion = mahayana
				religion = buddhism
				religion = jain
			}
		}
	}
	
	bonus = {
		institution_spread_from_true_faith = 0.10
		interest = -1
	}
	
	grand_ceremony = {
		prestige = 0.05
		prestige_per_development_from_conversion = 0.20
	}
	prophecy = {
		tolerance_own = 1
	}
	divine_intercession = {
		devotion = 0.20
		horde_unity = 0.20
		legitimacy = 0.20
		republican_tradition = 0.10
	}
	holy_warriors = {
		manpower_recovery_speed = 0.05
	}
	augury = {
		free_leader_pool = 1
		land_morale = 0.05
	}
	sacrifices = {
		global_unrest = -1.0
		missionaries = 1
	}
	monuments = {
		prestige_decay = -0.005
		#global art power +5%
	}
	
	ai_will_do = {
		factor = 0.7
		modifier = {
			NOT = { piety = -0.20 }
			government = monarchy
		}
		modifier = {
			NOT = { piety = -0.60 }
			factor = 0
		}
		modifier = {
			NOT = { piety = 0.20 }
			government = republic
			factor = 0
		}
		modifier = {
			piety = 0.60
			factor = 1.4
		}
		modifier = {
			NOT = { piety = -0.20 }
			factor = 0.7
		}
		modifier = {
			government = republic
			factor = 0.5
		}
		modifier = {
			government = theocracy
			factor = 2
		}
	}
}

culture_ideas = {
	category = DIP
	
	bonus = {
		prestige = 0.10
		prestige_decay = -0.005
	}
	
	luxury_tax = {
		global_tax_modifier = 0.05
	}
	novel_court = {
		global_institution_spread = 0.15
	}
	patron_of_art = {
		devotion = 0.20
		horde_unity = 0.20
		legitimacy = 0.20
		republican_tradition = 0.20
		#global art power +15%
	}
	scientific_encouragement = {
		idea_cost = -0.10
	}
	educated_ruler = {
		technology_cost = -0.05
	}
	educated_court = {
		advisor_cost = -0.10
		advisor_pool = 1
	}
	open_mind = {
		embracement_cost = -0.10
	}
	
	ai_will_do = {
		factor = 1
	}
}

democracy_ideas = {
	category = DIP
	
	trigger = {
		OR = {
			has_idea = dynamic_court
			NOT = { has_country_flag = init_done }
		}
		NOT = { government = absolute_monarchy }
		NOT = { government = despotic_monarchy }
		adm_tech = 20
	}
	
	bonus = {
		global_prov_trade_power_modifier = 0.10
	}
	
	bill_of_rights = {
		claim_duration = 0.05
		global_unrest = -2.0
	}
	honour_culture = {
		yearly_corruption = -0.10
	}
	self_governance = {
		prestige = 0.05
		state_maintenance_modifier = -0.10
	}
	free_assembly = {
		max_states = 1
		years_of_nationalism = -15
	}
	right_of_petition = {
		devotion = 0.10
		horde_unity = 0.10
		legitimacy = 0.10
		republican_tradition = 0.20
	}
	diversity = {
		num_accepted_cultures = 1
	}
	representation = {
		advisor_pool = 1
		stability_cost_modifier = -0.20
	}
	
	ai_will_do = {
		factor = 1
	}
}

diplomatic_ideas = {
	category = DIP
	
	bonus = {
		province_warscore_cost = -0.10
	}
	
	flexible_negotiation = {
		unjustified_demands = -0.2
	}
	war_cabinet = {
		war_exhaustion = -0.01
	}
	diplomatic_corps = {
		fabricate_claims_cost = -0.05
		improve_relation_modifier = 0.20
	}
	influential_diplomats = {
		claim_duration = 0.05
		diplomatic_reputation = 1
	}
	foreign_embassies = {
		diplomatic_upkeep = 2
	}
	foreign_affairs = {
		diplomats = 1
	}
	benign_diplomats = {
		diplomatic_annexation_cost = -0.10
		reduced_stab_impacts = yes
	}
	
	ai_will_do = {
		factor = 1
	}
}

economic_ideas = {
	category = ADM
	
	bonus = {
		inflation_reduction = 0.02
	}
	
	trade_councils = {
		trade_efficiency = 0.10
		trade_range_modifier = 0.25
	}
	tax_agency = {
		global_tax_modifier = 0.10
	}
	secure_trade_routes = {
		build_cost = -0.05
		global_prov_trade_power_modifier = 0.10
	}
	real_economy = {
		inflation_action_cost = -0.15
	}
	production_rights = {
		global_trade_goods_size_modifier = 0.10
	}
	national_bank = {
		interest = -1
	}
	smithian_economics = {
		production_efficiency = 0.20
	}
	
	ai_will_do = {
		factor = 1
	}
}

eminence_ideas = {
	category = DIP
	
	trigger = {
		OR = {
			has_idea = influential_diplomats
			NOT = { has_country_flag = init_done }
		}
	}
	
	bonus = {
		province_warscore_cost = -0.10
	}
	
	diplomatic_cover = {
		discovered_relations_impact = -0.25
	}
	experienced_diplomats = {
		diplomatic_reputation = 1
	}
	friendly_relations = {
		core_creation = -0.05
		improve_relation_modifier = 0.30
	}
	imperial_ambitions_emi = {
		prestige = 0.15
		prestige_decay = -0.005
	}
	fair_cause = {
		ae_impact = -0.10
		diplomatic_annexation_cost = -0.10
	}
	additional_diplomats = {
		diplomats = 1
	}
	additional_relations = {
		diplomatic_upkeep = 2
	}
	
	ai_will_do = {
		factor = 1
	}
}

empire_ideas = {
	category = ADM
	
	trigger = {
		OR = {
			has_idea = corruption_fighting
			OR = {
				has_idea = noble_resilience
				has_idea = influential_diplomats
			}
			NOT = { has_country_flag = init_done }
		}
	}
	
	bonus = {
		vassal_forcelimit_bonus = 0.25
		vassal_income = 0.05
	}
	
	punish_the_rebel = {
		harsh_treatment_cost = -0.05
	}
	greatness = {
		horde_unity = 0.20
		legitimacy = 0.20
		republican_tradition = 0.20
		prestige = 0.20
	}
	imperial_governors = {
		global_autonomy = -0.05
	}
	magistrates = {
		administrative_efficiency = 0.10
	}
	bureau_of_the_interior = {
		max_states = 2
	}
	ministry_of_war = {
		ae_impact = -0.05
		province_warscore_cost = -0.05
	}
	i_am_the_emperor = {
		claim_duration = 0.15
		max_absolutism = 10
	}
	
	ai_will_do = {
		factor = 1
	}
}

engineering_ideas = {
	category = ADM
	
	trigger = {
		OR = {
			has_idea = secure_trade_routes
			NOT = { has_country_flag = init_done }
		}
	}
	
	bonus = {
		defensiveness = 0.20
		fort_maintenance_modifier = -0.05
	}
	
	organised_construction = {
		build_time = -0.30
	}
	improved_gunpowder = {
		backrow_artillery_damage = 0.15
	}
	naval_construction = {
		ship_durability = 0.05
	}
	multi_role_artillery = {
		siege_ability = 0.10
	}
	pioneer_corps = {
		colonist_placement_chance = 0.025
	}
	unified_construction_plans = {
		build_cost = -0.20
		development_cost = -0.05
	}
	new_fortification_techniques = {
		
	}
	
	ai_will_do = {
		factor = 1
	}
}

spy_ideas = {
	category = DIP
	
	bonus = {
		rebel_support_efficiency = 0.50
		spy_offence = 0.20
	}
	
	subtle_recruitment = {
		discovered_relations_impact = -0.25
	}
	additional_loyalist_recruitment = {
		reduced_liberty_desire = 10
	}
	claim_fabrication = {
		claim_duration = 0.05
		fabricate_claims_cost = -0.15
	}
	agent_training = {
		diplomats = 1
	}
	false_flag = {
		ae_impact = -0.10
	}
	informants = {
		harsh_treatment_cost = -0.10
	}
	counterespionage = {
		global_spy_defence = 0.20
	}
	
	ai_will_do = {
		factor = 1
	}
}

expansion_ideas = {
	category = ADM
	important = yes
	
	trigger = {
		is_colonial_nation = no
		OR = {
			NOT = { has_country_flag = init_done }
			AND = {
				has_idea = martial_administration
				ai = no
			}
			AND = {
				has_idea_group = administrative_ideas
				ai = yes
			}
		}
	}
	
	bonus = {
		core_creation = -0.10
		prestige_decay = -0.005
	}
	
	native_scouts = {
		auto_explore_adjacent_to_colony = yes
		prestige = 0.05
	}
	additional_colonists = {
		colonists = 2
	}
	private_colony_charters = {
		colonist_placement_chance = 0.025
	}
	faster_colonists = {
		global_colonial_growth = 4
		range = 0.20
	}
	intrepid_mariners = {
		sailors_recovery_speed = 0.05
	}
	tough_colonists = {
		land_attrition = -0.05
	}
	bring_civilization = {
		cb_on_overseas = yes
	}
	
	ai_will_do = {
		factor = 1
		modifier = {
			factor = 0
			NOT = { num_of_ports = 1 }
		}
	}
}

exploration_ideas = {
	category = DIP
	important = yes
	
	trigger = {
		num_of_ports = 1
		is_colonial_nation = no
		OR = {
			religion_group = christian
			ai = no
		}
		OR = {
			has_idea = sheltered_ports
			ai = yes
			NOT = { has_country_flag = init_done }
		}
		OR = {
			AND = {
				capital_scope = {
					OR = {
						AND = {
							superregion = france_superregion
							
							NOT = {
								region = provence_region
								region = high_countries_region
							}
						}
						
						AND = {
							superregion = british_isles_superregion
							
							NOT = {
								region = scotland_region
							}
						}
						
						AND = {
							superregion = iberia_superregion
							
							NOT = {
								region = aragon_region
							}
						}
						
						region = west_maghreb_region
					}
				}
				
				dip_tech = 14
				adm_tech = 16
				ai = yes
			}
			AND = {
				capital_scope = {
					OR = {
						AND = {
							superregion = france_superregion
							
							NOT = {
								owner = { has_country_flag = hundred_years_war }
								
								region = provence_region
								region = high_countries_region
							}
						}
						
						AND = {
							superregion = british_isles_superregion
							
							NOT = {
								owner = { has_country_flag = hundred_years_war }
								
								region = scotland_region
							}
						}
						
						AND = {
							superregion = iberia_superregion
							
							NOT = {
								region = aragon_region
							}
						}
						
						region = west_maghreb_region
					}
				}
				dip_tech = 14
				adm_tech = 16
			}
			dip_tech = 20
		}
	}
	
	bonus = {
		cb_on_primitives = yes
	}
	
	quest_for_the_new_world = {
		may_explore = yes
	}
	overseas_exploration = {
		#unlocks new world expeditions
		range = 0.40
	}
	colonial_ventures = {
		colonist_placement_chance = 0.0125
		colonists = 2
	}
	land_of_opportunity = {
		global_colonial_growth = 4
	}
	naval_expeditions = {
		naval_attrition = -0.25
	}
	exploration_navies = {
		naval_forcelimit_modifier = 0.10
		ship_durability = 0.05
	}
	global_empire = {
		claim_duration = 0.05
		idea_claim_colonies = yes
	}
	ai_will_do = {
		factor = 1
		modifier = {
			factor = 0
			NOT = { num_of_ports = 1 }
			NOT = { is_colonial_nation = yes }
		}
		modifier = {
			factor = 0.1
			NOT = { num_of_ports = 5 }
		}
		modifier = {
			factor = 0.1
			NOT = { technology_group = western }
		}
		modifier = {
			factor = 0.1
			capital_scope = {
				NOT = {
					region = ouest_france_region
					region = east_france_region
					region = provence_region
					region = languedoc_region
					region = aquitaine_region
					region = high_countries_region
					region = aragon_region
					region = castille_region
					region = leon_region
					region = andalucia_region
					region = portugal_region
					region = south_england_region
					region = north_england_region
					region = scotland_region
					region = ireland_region
					region = belgii_region
					region = low_countries_region
				}
			}
		}
		modifier = {
			factor = 2.0
			num_of_ports = 10
		}
		modifier = {
			factor = 2.0
			num_of_ports = 15
		}
		modifier = {
			factor = 2.0
			num_of_ports = 20
		}
	}
}

fortification_ideas = {
	category = MIL
	
	bonus = {
		manpower_recovery_speed = 0.05
		reinforce_speed = 0.05
	}
	
	city_guards = {
		global_garrison_growth = 0.20
	}
	defensive_mentality = {
		defensiveness = 0.20
	}
	fortification_system = {
		fort_maintenance_modifier = -0.10
	}
	defending_homeland = {
		recover_army_morale_speed = 0.06
	}
	hit_and_run_tactics = {
		hostile_attrition = 1
	}
	national_forts = {
		harsh_treatment_cost = -0.10
	}
	safe_place = {
		land_attrition = -0.05
	}
	
	ai_will_do = {
		factor = 1
	}
}

free_trade_ideas = {
	category = DIP
	
	trigger = {
		OR = {
			has_idea = national_trade_policy
			NOT = { has_country_flag = init_done }
		}
		NOT = { has_idea_group = mercantilism_ideas }
	}
	
	bonus = {
		merchants = 1
		trade_efficiency = 0.05
	}
	
	aggressive_traders = {
		global_ship_trade_power = 0.05
		justify_trade_conflict_cost = -0.30
	}
	web_of_trade_contracts = {
		global_trade_power = 0.05
		trade_range_modifier = 0.30
	}
	exchange_of_customs = {
		diplomatic_upkeep = 1
		global_institution_spread = 0.05
	}
	joint_stock_companies = {
		global_prov_trade_power_modifier = 0.10
		placed_merchant_power = 0.10
	}
	supply_meets_demand = {
		inflation_reduction = 0.02
		production_efficiency = 0.10
	}
	overseas_merchants = {
		merchants = 1
	}
	targeted_imports = {
		global_foreign_trade_power = 0.20
	}
	
	ai_will_do = {
		factor = 1
	}
}

global_empire_ideas = {
	category = ADM
	
	trigger = {
		OR = {
			NOT = { has_country_flag = init_done }
			AND = {
				has_idea = martial_administration
				has_idea = faster_colonists
			}
		}
	}
	
	bonus = {
		colonist_placement_chance = 0.025
		global_colonial_growth = 5
	}
	
	exotic_goods = {
		global_prov_trade_power_modifier = 0.05
	}
	colonial_race = {
		colonists = 2
	}
	new_land = {
		max_states = 2
	}
	national_arsenal = {
		range = 0.30
		ship_durability = 0.05
	}
	vice_roys = {
		global_tariffs = 0.10
	}
	colonial_threats = {
		cb_on_overseas = yes
	}
	promise_of_the_new_world = {
		sailors_recovery_speed = 0.05
	}
	
	ai_will_do = {
		factor = 1
	}
}

grand_army_ideas = {
	category = MIL
	
	trigger = {
		OR = {
			AND = {
				has_idea = levy_system
				has_idea = standardised_calibres
			}
			NOT = { has_country_flag = init_done }
		}
	}
	
	bonus = {
		global_regiment_cost = -0.05
	}
	
	organised_recruiting = {
		global_regiment_recruit_speed = -0.10
	}
	big_army_small_cost = {
		land_maintenance_modifier = -0.05
	}
	military_enthusiasm = {
		global_manpower_modifier = 0.05
	}
	military_dignity = {
		manpower_recovery_speed = 0.05
	}
	quick_reinforcements = {
		reinforce_speed = 0.05
	}
	swarm_tactics = {
		land_forcelimit_modifier = 0.05
	}
	grand_army = {
		reinforce_cost_modifier = -0.05
	}
	
	ai_will_do = {
		factor = 1
	}
}

grand_fleet_ideas = {
	category = MIL
	
	trigger = {
		OR = {
			has_idea = sheltered_ports
			NOT = { has_country_flag = init_done }
		}
		num_of_ports = 1
	}
	
	bonus = {
		sailors_recovery_speed = 0.10
	}
	
	grand_fleet = {
		naval_forcelimit_modifier = 0.20
	}
	naval_standardization = {
		naval_maintenance_modifier = -0.05
	}
	grand_navy = {
		global_ship_recruit_speed = -0.10
		navy_tradition_decay = -0.005
	}
	port_recruitment = {
		global_sailors_modifier = 0.20
	}
	auxiliary_vessels = {
		blockade_efficiency = 0.30
		embargo_efficiency = 0.10
	}
	naval_glory = {
		sailor_maintenance_modifer = -0.15
	}
	ships_penny = {
		global_ship_cost = -0.05
	}
	
	ai_will_do = {
		factor = 1
	}
}

humanist_ideas = {
	category = ADM
	
	bonus = {
		religious_unity = 0.10
	}
	
	tolerance_idea = {
		idea_cost = -0.05
	}
	local_traditions = {
		global_tax_modifier = 0.05
		global_unrest = -2
	}
	indirect_rule = {
		years_of_nationalism = -10
	}
	cultural_ties = {
		num_accepted_cultures = 1
	}
	ecumenism_hi = {
		tolerance_heretic = 1
	}
	benevolence = {
		num_accepted_cultures = 1
	}
	humanist_tolerance = {
		tolerance_heathen = 1
	}
	
	ai_will_do = {
		factor = 1
	}
}

influence_ideas = {
	category = DIP
	
	trigger = {
		OR = {
			has_idea = influential_diplomats
			NOT = { has_country_flag = init_done }
		}
	}
	
	bonus = {
		diplomatic_reputation = 2
	}
	
	integrated_elites = {
		reduced_liberty_desire = 5
	}
	influence_beyond_our_borders = {
		diplomats = 1
	}
	state_propaganda = {
		unjustified_demands = -0.15
		#global art power +10%
	}
	marcher_lords = {
		vassal_forcelimit_bonus = 0.25
	}
	diplomatic_influence = {
		diplomatic_upkeep = 1
	}
	tribute_system = {
		vassal_income = 0.10
	}
	the_art_of_influence = {
		global_spy_defence = 0.05
		spy_offence = 0.05
	}
	
	ai_will_do = {
		factor = 1
	}
}

innovativeness_ideas = {
	category = ADM
	
	trigger = {
		adm_tech = 20
	}
	
	bonus = {
		technology_cost = -0.10
	}
	
	emancipation = {
		global_tax_modifier = 0.05
		global_unrest = -1
	}
	optimism = {
		idea_cost = -0.10
	}
	formalized_naval_officers = {
		navy_tradition_decay = -0.005
	}
	scientific_revolution = {
		embracement_cost = -0.10
	}
	formalized_officer_corps = {
		army_tradition_decay = -0.005
	}
	dynamic_court = {
		advisor_cost = -0.10
		advisor_pool = 1
	}
	free_subjects = {
		global_trade_goods_size_modifier = 0.05
	}
	
	ai_will_do = {
		factor = 1
	}
}

leadership_ideas = {
	category = MIL
	
	bonus = {
		leader_land_fire = 1
	}
	
	glorious_arms = {
		prestige_from_land = 1.00
	}
	combat_maneuver = {
		leader_land_manuever = 1
	}
	leadership = {
		recover_army_morale_speed = 0.04
	}
	siege_master = {
		leader_siege = 1
	}
	militar_culture = {
		army_tradition_decay = -0.005
	}
	combat_leaders = {
		leader_land_shock = 1
	}
	proud_to_serve = {
		free_leader_pool = 1
		reinforce_speed = 0.05
	}
	
	ai_will_do = {
		factor = 1
	}
}

logistic_ideas = {
	category = MIL
	
	bonus = {
		movement_speed = 0.10
	}
	
	fast_shipyards = {
		global_ship_recruit_speed = -0.20
	}
	engineer_corps = {
		artillery_bonus_vs_fort = 1
	}
	supply_trains = {
		envoy_travel_time = -0.30
		reinforce_speed = 0.05
	}
	coastal_harassment = {
		siege_blockade_progress = 1
	}
	regimental_system = {
		global_regiment_recruit_speed = -0.20
	}
	improved_siege_techniques = {
		siege_ability = 0.10
	}
	improved_foraging = {
		land_attrition = -0.05
	}
	
	ai_will_do = {
		factor = 1
	}
}

mercantilism_ideas = {
	category = DIP
	
	trigger = {
		NOT = { has_idea_group = free_trade_ideas }
		OR = {
			has_idea = national_trade_policy
			NOT = { has_country_flag = init_done }
		}
	}
	
	bonus = {
		embracement_cost = -0.05
		merchants = 1
	}
	
	protectionism = {
		embargo_efficiency = 0.20
		global_ship_trade_power = 0.05
	}
	trade_practice_regulations = {
		global_tariffs = 0.10
	}
	market_day = {
		global_prov_trade_power_modifier = 0.10
	}
	subsidized_economy = {
		global_trade_goods_size_modifier = 0.05
	}
	controlled_fairs = {
		global_own_trade_power = 0.20
	}
	economic_advisor = {
		merchants = 1
		placed_merchant_power = 0.20
	}
	staple_right = {
		global_trade_power = 0.05
		trade_efficiency = 0.05
	}
	
	ai_will_do = {
		factor = 1
	}
}

mercenary_ideas = {
	category = MIL
	
	trigger = {
		OR = {
			NOT = { has_idea_group = standing_army_ideas }
			mil_tech = 27
		}
		has_dlc = "Mare Nostrum"
	}
	
	bonus = {
		mercenary_cost = -0.10
	}
	
	dogs_of_war = {
		loot_amount = 0.10
	}
	mercenary_levies = {
		possible_condottieri = 0.50
	}
	organised_mercenary_recruitment = {
		possible_mercenaries = 1.00
	}
	organised_mercenary_payment = {
		merc_maintenance_modifier = -0.05
	}
	mercenary_calm = {
		war_exhaustion = -0.01
	}
	specialized_training = {
		mercenary_discipline = 0.05
	}
	benefits_for_mercenaries = {
		free_leader_pool = 1
		prestige = 0.10
	}
	
	ai_will_do = {
		factor = 0.3 #probably unwise for the AI to take this, most times
	}
}

mercenary_ideas_2 = {
	category = MIL
	
	trigger = {
		OR = {
			NOT = { has_idea_group = standing_army_ideas }
			mil_tech = 27
		}
		NOT = { has_dlc = "Mare Nostrum" }
	}
	
	bonus = {
		mercenary_cost = -0.10
	}
	
	dogs_of_war_2 = {
		loot_amount = 0.10
	}
	mercenary_levies_2 = {
		land_forcelimit_modifier = 0.1
	}
	organised_mercenary_recruitment_2 = {
		possible_mercenaries = 1.0
	}
	organised_mercenary_payment_2 = {
		merc_maintenance_modifier = -0.05
	}
	mercenary_calm_2 = {
		war_exhaustion = -0.01
	}
	specialized_training_2 = {
		mercenary_discipline = 0.05
	}
	benefits_for_mercenaries_2 = {
		free_leader_pool = 1
		prestige = 0.10
	}
	
	ai_will_do = {
		factor = 0.3 #probably unwise for the AI to take this, most times
	}
}

merchant_marine_ideas = {
	category = DIP
	
	trigger = {
		OR = {
			NOT = { has_country_flag = init_done }
			AND = {
				has_idea = sheltered_ports
				has_idea = national_trade_policy
				num_of_ports = 1
			}
		}
	}
	
	bonus = {
		free_leader_pool = 1
		merchants = 1
	}
	
	skeleton_based_shipbuilding = {
		global_ship_recruit_speed = -0.10
		prestige_from_naval = 0.25
		trade_range_modifier = 0.10
	}
	convoy = {
		global_sailors_modifier = 0.10
		global_tariffs = 0.05
	}
	fore_and_aft_rigged_vessels = {
		blockade_efficiency = 0.20
		embargo_efficiency = 0.20
	}
	transportation_companies = {
		merchants = 1
	}
	privateers = {
		justify_trade_conflict_cost = -0.20
		privateer_efficiency = 0.30
	}
	experienced_navigators = {
		global_institution_spread = 0.05
		ship_power_propagation = 0.20
	}
	private_shipbuilding_incentives = {
		global_ship_trade_power = 0.20
	}
	
	ai_will_do = {
		factor = 1
	}
}

naval_ideas = {
	category = MIL
	
	trigger = {
		num_of_ports = 1
	}
	
	bonus = {
		naval_attrition = -0.25
		sea_repair = yes
	}
	
	improved_shipyards = {
		global_ship_recruit_speed = -0.10
	}
	sheltered_ports = {
		range = 0.10
		sailors_recovery_speed = 0.05
	}
	boarding_parties = {
		naval_morale = 0.05
	}
	naval_cadets = {
		global_sailors_modifier = 0.10
		naval_forcelimit_modifier = 0.20
	}
	naval_fighting_instruction = {
		sailor_maintenance_modifer = -0.05
	}
	sea_hawks = {
		navy_tradition_decay = -0.005
		naval_tradition_from_battle = 1.00
	}
	press_gangs = {
		naval_maintenance_modifier = -0.05
	}
	
	ai_will_do = {
		factor = 1
	}
}

naval_leadership_ideas = {
	category = MIL
	
	trigger = {
		OR = {
			NOT = { has_country_flag = init_done }
			has_idea = sheltered_ports
		}
		num_of_ports = 1
	}
	
	bonus = {
		leader_naval_fire = 1
	}
	
	shanties = {
		free_leader_pool = 1
		recover_navy_morale_speed = 0.04
	}
	chained_cannonballs = {
		capture_ship_chance = 0.15
		naval_morale = 0.10
	}
	flagships = {
		global_naval_engagement_modifier = 0.05
		prestige_from_naval = 0.25
	}
	improved_charting_techniques = {
		leader_naval_manuever = 1
	}
	naval_culture = {
		navy_tradition_decay = -0.005
	}
	grapeshot_supported_boarding = {
		leader_naval_shock = 1
	}
	a_leader_to_follow = {
		global_sailors_modifier = 0.10
		global_ship_repair = 0.20
	}
	
	ai_will_do = {
		factor = 1
	}
}

naval_quality_ideas = {
	category = MIL
	
	trigger = {
		OR = {
			has_idea = sheltered_ports
			NOT = { has_country_flag = init_done }
		}
		num_of_ports = 1
	}
	
	bonus = {
		heavy_ship_power = 0.10
		light_ship_power = 0.10
	}
	
	naval_wisdom = {
		navy_tradition_decay = -0.005
	}
	naval_drill = {
		recover_navy_morale_speed = 0.08
	}
	good_quality_wood = {
		global_ship_repair = 0.30
	}
	improved_rams = {
		galley_power = 0.10
		transport_power = 0.10
	}
	oak_forests_for_ships = {
		global_ship_cost = -0.05
	}
	excellent_shipwrights = {
		ship_durability = 0.10
	}
	superior_seamanship = {
		naval_morale = 0.10
		prestige_from_naval = 0.75
	}
	
	ai_will_do = {
		factor = 1
	}
}

plutocracy_ideas = {
	category = DIP
	
	trigger = {
		NOT = { government = monarchy }
		NOT = { government = noble_republic }
		NOT = { government = theocratic_government }
		NOT = { government = monastic_order_government }
		NOT = { government = papal_government }
		NOT = { has_idea_group = aristocracy_ideas }
	}
	
	bonus = {
		inflation_action_cost = -0.05
		yearly_corruption = -0.05
	}
	
	free_cities = {
		global_prov_trade_power_modifier = 0.10
	}
	competetive_merchants = {
		global_trade_power = 0.10
	}
	resilient_state = {
		republican_tradition = 0.10
		global_unrest = -2
	}
	tradition_of_payment = {
		mercenary_cost = -0.05
	}
	pragmatism = {
		free_leader_pool = 1
		trade_range_modifier = 0.30
	}
	free_merchants = {
		merchants = 1
	}
	popular_support = {
		diplomatic_upkeep = 2
	}
	
	ai_will_do = {
		factor = 1
	}
}

popular_religion_ideas = { #DG
	category = ADM
	
	bonus = {
		religious_unity = 0.15
	}
	
	religious_art = {
		prestige_per_development_from_conversion = 0.50
		#global art power +10%
	}
	evangelism = {
		missionaries = 1
	}
	reliquaries = {
		devotion = 0.20
		horde_unity = 0.10
		legitimacy = 0.10
		republican_tradition = 0.10
	}
	pilgrimage = {
		tolerance_own = 1.0
	}
	flexible_theology = {
		tolerance_heathen = 1.0
	}
	faith_healing = {
		global_unrest = -2.0
	}
	messiahs = {
		war_exhaustion = -0.01
	}
	
	ai_will_do = {
		factor = 0.7
		modifier = {
			NOT = { piety = -0.20 }
			government = monarchy
		}
		modifier = {
			NOT = { piety = -0.60 }
			factor = 0
		}
		modifier = {
			NOT = { piety = 0.20 }
			government = republic
			factor = 0
		}
		modifier = {
			piety = 0.60
			factor = 1.4
		}
		modifier = {
			NOT = { piety = -0.20 }
			factor = 0.7
		}
		modifier = {
			NOT = { religious_unity = 100 }
			factor = 1.4
		}
		modifier = {
			NOT = { religious_unity = 80 }
			factor = 1.4
		}
		modifier = {
			government = republic
			factor = 0.5
		}
		modifier = {
			government = theocracy
			factor = 2
		}
	}
}

professional_army_ideas = {
	category = MIL
	
	trigger = {
		OR = {
			NOT = { has_country_flag = init_done }
			AND = {
				has_idea = levy_system
				has_idea = military_drill
			}
		}
	}
	
	bonus = {
		discipline = 0.025
	}
	
	sieging_troops = {
		siege_ability = 0.05
	}
	military_treatises = {
		land_attrition = -0.05
	}
	formal_military_education = {
		army_tradition_decay = -0.005
		prestige_from_land = 0.25
	}
	war_veterans = {
		land_morale = 0.10
	}
	military_reserve_force = {
		global_regiment_recruit_speed = -0.10
		reinforce_speed = 0.05
	}
	conscription_lists = {
		manpower_recovery_speed = 0.05
	}
	cannon_support = {
		backrow_artillery_damage = 0.10
	}
	
	ai_will_do = {
		factor = 1
	}
}

quality_ideas = {
	category = MIL
	
	bonus = {
		infantry_power = 0.10
	}
	
	war_college_idea = {
		free_leader_pool = 1
	}
	victorious_army = {
		army_tradition_decay = -0.005
	}
	military_drill = {
		land_morale = 0.05
	}
	massed_battery = {
		artillery_power = 0.10
	}
	our_walls_will_not_fall = {
		defensiveness = 0.10
	}
	finest_of_horses = {
		cavalry_power = 0.10
	}
	quality_education = {
		recover_army_morale_speed = 0.04
	}
	
	ai_will_do = {
		factor = 1
	}
}

quantity_ideas = {
	category = MIL
	
	bonus = {
		global_manpower_modifier = 0.15
	}
	
	manufactured_uniforms = {
		infantry_cost = -0.05
	}
	enforced_service = {
		land_maintenance_modifier = -0.05
	}
	military_horse_breeding = {
		cavalry_cost = -0.05
	}
	mass_army = {
		advisor_pool = 1
		possible_condottieri = 0.50
	}
	standardised_calibres = {
		artillery_cost = -0.05
	}
	military_parades = {
		land_forcelimit_modifier = 0.10
	}
	victory_behind_numbers = {
		reinforce_speed = 0.10
	}
	
	
	ai_will_do = {
		factor = 1
	}
}

scholasticism_ideas = { #DG
	category = ADM
	
	trigger = {
		#		university_trigger = yes
	}
	
	bonus = {
		technology_cost = -0.10
	}
	
	educated_priests = {
		institution_spread_from_true_faith = 0.10
	}
	itinerant_preachers = {
		missionaries = 1
	}
	religious_law = {
		global_autonomy = -0.05
	}
	religious_advisors = {
		diplomats = 1
	}
	clerical_teaching = {
		advisor_cost = -0.05
		advisor_pool = 1
	}
	ecceleistical_judiciary = {
		global_unrest = -1.00
		war_exhaustion = -0.01
	}
	scriptural_tradition = {
		global_heretic_missionary_strength = 0.01
		global_missionary_strength = 0.02
	}
	
	ai_will_do = {
		factor = 0.7
		modifier = {
			NOT = { piety = -0.20 }
			government = monarchy
		}
		modifier = {
			NOT = { piety = -0.60 }
			factor = 0
		}
		modifier = {
			NOT = { piety = 0.20 }
			government = republic
			factor = 0
		}
		modifier = {
			piety = 0.60
			factor = 1.4
		}
		modifier = {
			NOT = { piety = -0.20 }
			factor = 0.7
		}
		modifier = {
			government = republic
			factor = 0.5
		}
		modifier = {
			government = theocracy
			factor = 2
		}
	}
}

standing_army_ideas = {
	category = MIL
	
	trigger = {
		OR = {
			NOT = { has_idea_group = mercenary_ideas }
			mil_tech = 27
		}
	}
	
	bonus = {
		reinforce_speed = 0.15
	}
	
	forced_conscription = {
		global_manpower_modifier = 0.05
		prestige_from_land = 0.25
	}
	battlefield_commisions = {
		army_tradition_from_battle = 1.00
	}
	faith_in_victory = {
		free_leader_pool = 1
		global_regiment_recruit_speed = -0.10
	}
	nationalistic_enthusiasm = {
		land_forcelimit_modifier = 0.10
	}
	national_conscripts = {
		army_tradition_decay = -0.005
	}
	levy_system = {
		manpower_recovery_speed = 0.05
	}
	expanded_supply_trains = {
		land_attrition = -0.05
	}
	
	ai_will_do = {
		factor = 1
	}
}

theology_ideas = { #DG State Religion
	category = ADM
	
	bonus = {
		recover_army_morale_speed = 0.06
		recover_navy_morale_speed = 0.06
	}
	
	mandatory_church_attendance = {
		prestige_per_development_from_conversion = 0.10
		stability_cost_modifier = -0.10
	}
	religious_traditions = {
		tolerance_own = 1.00
	}
	holy_orders = {
		land_morale = 0.05
	}
	crusades = {
		cb_on_religious_enemies = yes
	}
	divine_right = {
		devotion = 0.20
		horde_unity = 0.20
		legitimacy = 0.10
		republican_tradition = 0.10
	}
	just_war = {
		global_heretic_missionary_strength = 0.02
		global_missionary_strength = 0.03
	}
	chosen_people = {
		global_autonomy = -0.05
	}
	
	ai_will_do = {
		factor = 0.7
		modifier = {
			NOT = { piety = -0.20 }
			government = monarchy
		}
		modifier = {
			NOT = { piety = -0.60 }
			factor = 0
		}
		modifier = {
			NOT = { piety = 0.20 }
			government = republic
			factor = 0
		}
		modifier = {
			piety = 0.60
			factor = 1.4
		}
		modifier = {
			NOT = { piety = -0.20 }
			factor = 0.7
		}
		modifier = {
			government = theocracy
			factor = 1.4
		}
		modifier = {
			any_neighbor_country = { NOT = { religion_group = ROOT } }
			factor = 1.4
		}
		modifier = {
			at_war_with_religious_enemy = yes
			factor = 1.4
		}
		modifier = {
			government = republic
			factor = 0.5
		}
		modifier = {
			government = theocracy
			factor = 2
		}
	}
}

trade_ideas = {
	category = DIP
	
	bonus = {
		merchants = 1
		placed_merchant_power = 0.30
	}
	
	national_trade_policy = {
		trade_efficiency = 0.10
	}
	shrewd_commerce_practise = {
		global_trade_power = 0.10
	}
	merchant_adventures = {
		trade_range_modifier = 0.30
		ship_power_propagation = 0.05
	}
	free_trade = {
		merchants = 1
	}
	trade_manipulation = {
		global_prov_trade_power_modifier = 0.10
	}
	additional_merchants = {
		merchants = 1
	}
	fast_negotiations = {
		global_trade_power = 0.05
	}
	
	ai_will_do = {
		factor = 1
		modifier = {
			factor = 0
			NOT = { num_of_cities = 6 }
			NOT = { total_base_tax = 50 }
			NOT = { government = merchant_republic }
			NOT = { government = venetian_republic }
		}
	}
}