namespace = trade_company_events

# New Fort
province_event = {
	id = trade_company_events.4
	title = "trade_company_events.EVTNAME4"
	desc = "trade_company_events.EVTDESC4"
	picture = FORT_eventPicture
	
	trigger = {
		is_owned_by_trade_company = yes
		trade_company_size = 5
		OR = {
			has_port = yes
			any_neighbor_province = {
				NOT = { owned_by = ROOT }
			}
		}
		OR = {
			has_building = fort_14th
			num_free_building_slots = 1
		}
		can_build = fort_15th
	}
	
	is_mtth_scaled_to_size = 1
	
	mean_time_to_happen = {
		years = 41
		modifier = {
			factor = 0.95
			trade_company_size = 10
		}
		modifier = {
			factor = 0.95
			trade_company_size = 15
		}
		modifier = {
			factor = 0.95
			trade_company_size = 20
		}
	}
	
	option = {	# Good initiative!
		name = "trade_company_events.EVTOPTA4"
		if = {
			limit = {
				has_building = fort_14th
			}
			remove_building = fort_14th
		}
		add_building = fort_15th
	}
	
	option = {
		name = "trade_company_events.EVTOPTB4"
		trigger = {
			owner = { ai = no }
			can_build = harbour_infrastructure_2
			NOT = { has_building = harbour_infrastructure_2 }
		}
		add_building = harbour_infrastructure_2
	}
	
	option = {
		name = "trade_company_events.EVTOPTC4"
		trigger = {
			owner = { ai = no }
		}
	}
}

# Border Conflict
province_event = {
	id = trade_company_events.5
	title = "trade_company_events.EVTNAME5"
	desc = "trade_company_events.EVTDESC5"
	picture = BORDER_TENSION_eventPicture
	
	trigger = {
		is_owned_by_trade_company = yes
		trade_company_size = 5
		any_neighbor_province = {
			NOT = { owned_by = ROOT }
			is_owned_by_trade_company = yes
			NOT = { is_core = ROOT }
			NOT = { is_claim = ROOT }
		}
	}
	
	is_mtth_scaled_to_size = 1
	
	mean_time_to_happen = {
		years = 25
		modifier = {
			factor = 0.95
			trade_company_size = 10
		}
		modifier = {
			factor = 0.95
			trade_company_size = 15
		}
		modifier = {
			factor = 0.95
			trade_company_size = 20
		}
	}
	
	option = {	# Force them to stand down
		name = "trade_company_events.EVTOPTA5"
		ai_chance = { factor = 50 }
		add_province_modifier = {
			name = trade_company_upset
			duration = 1825
		}
	}
	option = {	# Endorse their behavior
		name = "trade_company_events.EVTOPTB5"
		ai_chance = { factor = 50 }
		random_neighbor_province = {
			limit = {
				NOT = { owned_by = ROOT }
				is_owned_by_trade_company = yes
				NOT = { is_core = ROOT }
				NOT = { is_claim = ROOT }
			}
			add_claim = ROOT
		}
	}
}

# [Root.GetName] Massacre
province_event = {
	id = trade_company_events.6
	title = "trade_company_events.EVTNAME6"
	desc = "trade_company_events.EVTDESC6"
	picture = REFORM_eventPicture
	
	trigger = {
		is_owned_by_trade_company = yes
		trade_company_size = 5
		any_neighbor_province = {
			NOT = { owned_by = ROOT }
			is_owned_by_trade_company = yes
			owner = {
				NOT = { alliance_with = ROOT }
			}
		}
	}
	
	is_mtth_scaled_to_size = 1
	
	mean_time_to_happen = {
		years = 25
		modifier = {
			factor = 0.95
			trade_company_size = 10
		}
		modifier = {
			factor = 0.95
			trade_company_size = 15
		}
		modifier = {
			factor = 0.95
			trade_company_size = 20
		}
		modifier = {
			factor = 0.75
			any_neighbor_province = {
				NOT = { owned_by = ROOT }
				is_owned_by_trade_company = yes
				owner = {
					NOT = { alliance_with = ROOT }
					OR = {
						is_rival = ROOT
						war_with = ROOT
					}
				}
			}
		}
	}
	
	option = {	# Imprison the governor
		name = "trade_company_events.EVTOPTA6"
		ai_chance = { factor = 50 }
		add_province_modifier = {
			name = trade_company_greatly_upset
			duration = 3650
		}
	}
	option = {	# Support the governor
		name = "trade_company_events.EVTOPTB6"
		ai_chance = { factor = 50 }
		random_neighbor_province = {
			limit = {
				NOT = { owned_by = ROOT }
				is_owned_by_trade_company = yes
				owner = {
					NOT = { alliance_with = ROOT }
				}
			}
			tooltip = {
				owner = {
					add_opinion = {
						modifier = beheaded_governor
						who = ROOT
					}
				}
			}
			hidden_effect = {
				province_event = { id = trade_company_events.7 days = 1 }
			}
		}
	}
}

# [From.GetName] Massacre
province_event = {
	id = trade_company_events.7
	title = "trade_company_events.EVTNAME7"
	desc = "trade_company_events.EVTDESC7"
	picture = WOUNDED_SOLDIERS_eventPicture
	
	is_triggered_only = yes
	
	option = {	# Outrages!
		name = "trade_company_events.EVTOPTA7"
		owner = {
			add_opinion = {
				modifier = beheaded_governor
				who = FROM
			}
		}
	}
}

# Expand Trade Company
province_event = {
	id = trade_company_events.8
	title = "trade_company_events.EVTNAME8"
	desc = "trade_company_events.EVTDESC8"
	picture = REFORM_eventPicture
	
	trigger = {
		is_owned_by_trade_company = yes
		trade_company_size = 3
		any_neighbor_province = {
			NOT = { owned_by = ROOT }
			NOT = { is_core = ROOT }
			NOT = { is_claim = ROOT }
		}
	}
	
	is_mtth_scaled_to_size = 1
	
	mean_time_to_happen = {
		years = 25
		modifier = {
			factor = 1.1
			trade_company_size = 10
		}
		modifier = {
			factor = 1.25
			trade_company_size = 15
		}
		modifier = {
			factor = 1.5
			trade_company_size = 20
		}
	}
	
	option = {	# Go ahead and claim it
		name = "trade_company_events.EVTOPTA8"
		ai_chance = { factor = 50 }
		random_neighbor_province = {
			limit = {
				NOT = { owned_by = ROOT }
				NOT = { is_core = ROOT }
				NOT = { is_claim = ROOT }
			}
			add_claim = ROOT
			set_province_flag = claimed_for_trade_company
		}
		hidden_effect = {
			random_list = {
				40 = { province_event = { id = trade_company_events.9 days = 1095 } }
				40 = { province_event = { id = trade_company_events.9 days = 1825 } }
				20 = { province_event = { id = trade_company_events.9 days = 3650 } }
			}
		}
		custom_tooltip = trade_company_events.EVTTOOLTIP8
		set_province_flag = trade_company_claimer
	}
	option = {	# Ignore their demand
		name = "trade_company_events.EVTOPTB8"
		ai_chance = { factor = 50 }
		add_province_modifier = {
			name = trade_company_upset
			duration = 1825
		}
	}
}

# Trade Company Unhappy
province_event = {
	id = trade_company_events.9
	title = "trade_company_events.EVTNAME9"
	desc = "trade_company_events.EVTDESC9"
	picture = LIBERUM_VETO_eventPicture
	
	is_triggered_only = yes
	
	trigger = {
		has_province_flag = trade_company_claimer
		is_owned_by_trade_company = yes
		any_neighbor_province = {
			has_province_flag = claimed_for_trade_company
			owner = {
				NOT = { war_with = ROOT }
			}
			NOT = { owned_by = ROOT }
			is_claim = ROOT
		}
	}
	
	option = {	# Renew the promise
		name = "trade_company_events.EVTOPTA9"
		ai_chance = { factor = 30 }
		trigger = {
			NOT = { has_province_flag = renewed_promise }
		}
		add_province_modifier = {
			name = trade_company_annoyed
			duration = 1825
		}
		set_province_flag = renewed_promise
		hidden_effect = {
			40 = { province_event = { id = trade_company_events.9 days = 365 } }
		}
	}
	option = {	# Support them in other ways
		name = "trade_company_events.EVTOPTB9"
		ai_chance = { factor = 40 }
		owner = {
			add_dip_power = -25
			add_mil_power = -25
		}
		clr_province_flag = renewed_promise
		hidden_effect = {
			random_neighbor_province = {
				limit = {
					NOT = { owned_by = ROOT }
					has_province_flag = claimed_for_trade_company
					is_claim = ROOT
				}
				clr_province_flag = claimed_for_trade_company
			}
		}
	}
	option = {	# Ignore their concerns
		name = "trade_company_events.EVTOPTC9"
		ai_chance = { factor = 30 }
		add_province_modifier = {
			name = trade_company_greatly_upset
			duration = 3650
		}
		clr_province_flag = trade_company_claimer
		clr_province_flag = renewed_promise
		hidden_effect = {
			random_neighbor_province = {
				limit = {
					NOT = { owned_by = ROOT }
					has_province_flag = claimed_for_trade_company
					is_claim = ROOT
				}
				clr_province_flag = claimed_for_trade_company
			}
		}
	}
}

# Trade Company Boom
province_event = {
	id = trade_company_events.10
	title = "trade_company_events.EVTNAME10"
	desc = "trade_company_events.EVTDESC10"
	picture = HARBOUR_eventPicture
	
	trigger = {
		is_owned_by_trade_company = yes
		trade_company_size = 5
		owner = {
			NOT = { has_country_modifier = trade_company_boom }
			NOT = { has_country_modifier = trade_company_trouble }
		}
	}
	
	is_mtth_scaled_to_size = 1
	
	mean_time_to_happen = {
		years = 25
		modifier = {
			factor = 0.95
			trade_company_size = 10
		}
		modifier = {
			factor = 0.95
			trade_company_size = 15
		}
		modifier = {
			factor = 0.95
			trade_company_size = 20
		}
	}
	
	option = {	# Take advantage of this trend
		name = "trade_company_events.EVTOPTA10"
		ai_chance = { factor = 75 }
		owner = {
			add_country_modifier = {
				name = trade_company_boom
				duration = 3650
			}
		}
	}
	option = {	# Demand dividend on our investment
		name = "trade_company_events.EVTOPTB10"
		ai_chance = { factor = 25 }
		owner = {
			add_years_of_income = 0.25
		}
	}
}

# Trade Company Trouble
province_event = {
	id = trade_company_events.11
	title = "trade_company_events.EVTNAME11"
	desc = "trade_company_events.EVTDESC11"
	picture = ELECTION_REPUBLIC_eventPicture
	
	trigger = {
		is_owned_by_trade_company = yes
		trade_company_size = 5
		owner = {
			NOT = { has_country_modifier = trade_company_boom }
			NOT = { has_country_modifier = trade_company_trouble }
		}
	}
	
	is_mtth_scaled_to_size = 1
	
	mean_time_to_happen = {
		years = 33
		modifier = {
			factor = 0.95
			trade_company_size = 10
		}
		modifier = {
			factor = 0.95
			trade_company_size = 15
		}
		modifier = {
			factor = 0.95
			trade_company_size = 20
		}
	}
	
	option = {	# It is in our interest
		name = "trade_company_events.EVTOPTA11"
		ai_chance = { factor = 75 }
		owner = {
			add_country_modifier = {
				name = trade_company_trouble
				duration = 1825
			}
		}
	}
	option = {	# It is not our problem
		name = "trade_company_events.EVTOPTB11"
		ai_chance = { factor = 25 }
		add_province_modifier = {
			name = trade_company_greatly_upset
			duration = 3650
		}
	}
}
