# The Call of the Hunt
province_event = {
	id = colonial.12
	title = "colonial.EVTNAME12"
	desc = "colonial.EVTDESC12"
	picture = NATIVES_eventPicture
	
	is_triggered_only = yes
	
	trigger = {
		any_empty_neighbor_province = {
			NOT = { trade_goods = fur }
			native_size = 1000
			OR = {
				culture_group = west_algonquian
				culture_group = east_algonquian
				culture_group = athabascan_group
				culture_group = caddoan
				culture_group = plain_indians
			}
		}
		OR = {
			owner = { has_country_flag = NF_ruthless }
			owner = { has_country_flag = NF_peacenik }
			AND = {
				owner = { has_country_flag = NF_trader }
				has_port = yes
			}
		}
	}
	
	#	mean_time_to_happen = {
	#		days = 1
	#	}
	
	option = {
		name = "colonial.EVTOPTA12"
		add_province_modifier = { name = colonial_influx duration = 3650 }
	}
	option = {
		name = "colonial.EVTOPTB12"
		create_advisor = colonial_governor
	}
	option = {
		name = "colonial.EVTOPTC12"
		change_trade_goods = fur
		
		hidden_effect = { set_base_price_of_goods = yes set_rural_goods_stuff = yes }
	}
}

# Fur Trade Dwindles
province_event = {
	id = colonial.13
	title = "colonial.EVTNAME13"
	desc = "colonial.EVTDESC13"
	picture = MERCHANTS_TALKING_eventPicture
	
	is_triggered_only = yes
	
	trigger = {
		trade_goods = fur
		check_variable = { which = urban_production_power value = 0.3 }
		NOT = {
			any_neighbor_province = {
				OR = {
					culture_group = west_algonquian
					culture_group = east_algonquian
					culture_group = athabascan_group
					culture_group = caddoan
					culture_group = plain_indians
				}
			}
		}
		NOT = {
			any_neighbor_province = {
				is_empty = yes
			}
		}
		NOT = {
			any_neighbor_province = {
				owner = {
					OR = {
						government = tribal_nomads
						government = tribal_nomads_hereditary
					}
				}
				controller = {
					OR = {
						government = tribal_nomads
						government = tribal_nomads_hereditary
					}
				}
			}
		}
	}
	
	#	mean_time_to_happen = {
	#		days = 1
	#	}
	
	option = {
		name = "colonial.EVTOPTA13"
		POP_clear_production_all = yes
		set_province_flag = urban_goods_rank_3
		set_province_flag = urban_goods_naval_supplies
		POP_assign_production = {
			type = naval_supplies
		}
	}
	option = {
		name = "colonial.EVTOPTC13"
		if = {
			limit = {
				owner = {
					capital_scope = {
						continent = europe
					}
				}
			}
			change_trade_goods = wheat
			
			hidden_effect = { set_base_price_of_goods = yes set_rural_goods_stuff = yes }
		}
		if = {
			limit = {
				owner = {
					capital_scope = {
						africa_continent_trigger = yes
					}
				}
			}
			change_trade_goods = millet
			
			hidden_effect = { set_base_price_of_goods = yes set_rural_goods_stuff = yes }
		}
		if = {
			limit = {
				owner = {
					capital_scope = {
						asia_continent_trigger = yes
					}
				}
			}
			change_trade_goods = rice
			
			hidden_effect = { set_base_price_of_goods = yes set_rural_goods_stuff = yes }
		}
		if = {
			limit = {
				owner = {
					capital_scope = {
						OR = {
							continent = north_america
							continent = south_america
						}
					}
				}
			}
			change_trade_goods = maize
			
			hidden_effect = { set_base_price_of_goods = yes set_rural_goods_stuff = yes }
		}
	}
}

# Jesuit mission founded
province_event = {
	id = colonial.14
	title = "colonial.EVTNAME14"
	desc = "colonial.EVTDESC14"
	picture = RELIGION_eventPicture
	
	is_triggered_only = yes
	
	trigger = {
		is_colony = yes
		OR = {
			continent = north_america
			continent = south_america
		}
		owner = {
			has_country_modifier = the_societas_jesu
			religion = catholic
		}
		is_religion_enabled = protestant
		NOT = {
			is_year = 1650
		}
		NOT = {
			has_province_modifier = jesuit_mission
		}
	}
	
	#	mean_time_to_happen = {
	#		days = 1
	#		
	#		modifier = {
	#			factor = 1.5
	#			owner = {
	#				has_country_modifier = counter_reformation
	#			}
	#		}
	#		modifier = {
	#			factor = 1.75
	#			owner = {
	#				culture_group = iberian
	#			}
	#		}
	#	}
	
	option = {
		name = "colonial.EVTOPTA14"
		add_province_modifier = {
			name = jesuit_mission
			duration = -1
		}
	}
}


# Colonial Migration
province_event = {
	id = colonial.17
	title = "EVTNAME6401"
	desc = "EVTDESC6401"
	picture = COLONIZATION_eventPicture
	
	is_triggered_only = yes
	
	trigger = {
		colonysize = 300
		NOT = { colonysize = 500 }
		owner = {
			any_owned_province = {
				is_colony = yes
				colonysize = 500
			}
		}
	}
	
	#	mean_time_to_happen = {
	#		days = 1
	#	}
	
	option = {
		name = "EVTOPTA6401"
		add_colonysize = -200
		owner = {
			random_owned_province = {
				limit = { is_colony = yes colonysize = 500 }
				add_colonysize = 200
			}
		}
	}
}

# New World Coffee
province_event = {
	id = colonial.18
	title = "colonial.EVTNAME18"
	desc = "colonial.EVTDESC18"
	picture = TRADEGOODS_eventPicture
	
	is_triggered_only = yes
	
	trigger = {
		is_year = 1650
		OR = {
			region = la_plata_region
			region = peru_region
			province_group = amazonia_group
			region = carribeans_region
			central_america_region_trigger = yes
			province_group = the_spanish_main_group
		}
		OR = {
			farming_province_trigger = yes
			trade_goods = fish
			trade_goods = wool
			has_province_flag = urban_goods_naval_supplies
			trade_goods = salt
			trade_goods = fur
		}
		NOT = {
			any_neighbor_province = {
				is_empty = yes
			}
		}
	}
	
	#	mean_time_to_happen = {
	#		days = 1
	#	}
	
	option = {
		name = "colonial.EVTOPTA18"
		ai_chance = { factor = 90 }
		change_trade_goods = coffee
		hidden_effect = { set_base_price_of_goods = yes set_rural_goods_stuff = yes }
		POP_clear_production_all = yes
	}
	option = {
		name = "colonial.EVTOPTC18"
		ai_chance = { factor = 10 }
	}
}

# Development of colonies
province_event = {
	id = colonial.19
	title = "colonial.19.t"
	desc = "colonial.19.n"
	picture = COMPANY_BASE_eventPicture
	
	trigger = {
		has_province_flag = colonial_province
		NOT = { trade_goods = unknown }
		OR = {
			owner = { has_country_flag = NF_ruthless }
			owner = { has_country_flag = NF_peacenik }
			AND = {
				owner = { has_country_flag = NF_trader }
				has_port = yes
			}
		}
	}
	
	mean_time_to_happen = { years = 100 }
	
	option = {
		name = "colonial.19.a"
		add_province_modifier = { name = colonial_influx duration = 3650 }
	}
}

# Early explorers
country_event = {
	id = colonial.27
	title = "colonial.27.t"
	desc = "colonial.27.n"
	picture = SHIP_SAILING_eventPicture
	
	trigger = {
		has_country_modifier = early_exploration
		has_country_flag = early_exploration
		NOT = { has_idea_group = exploration_ideas }
		NOT = { num_of_explorers = 1 }
	}
	
	mean_time_to_happen = { months = 12 }
	
	option = {		# Hire Explorer
		name = "colonial.27.a"
		ai_chance = { factor = 100 }
		add_treasury = -20
		create_explorer = 10
	}
}

# End early exploration
country_event = {
	id = colonial.28
	title = "colonial.28.t"
	desc = "colonial.28.n"
	picture = SHIP_SAILING_eventPicture
	
	trigger = {
		has_country_modifier = early_exploration
		has_country_flag = early_exploration
		has_idea_group = exploration_ideas
		NOT = { has_country_flag = end_early_exploration }
	}
	
	mean_time_to_happen = { months = 2 }
	
	immediate = {
		set_country_flag = end_early_exploration
	}
	
	option = {		# Age of colonization
		name = "colonial.28.a"
		ai_chance = { factor = 100 }
		add_prestige = 3
		add_navy_tradition = 3
		remove_country_modifier = early_exploration
	}
}

# DISCOVER OF AZORES
country_event = {
	id = colonial.29
	title = "colonial.29.t"
	desc = "colonial.29.n"
	picture = SHIP_SAILING_eventPicture
	
	fire_only_once = yes
	
	trigger = {
		has_country_modifier = early_exploration
		has_country_flag = early_exploration
		NOT = { has_idea_group = exploration_ideas }
		owns = 368 # Madeira
		is_core = 368
	}
	
	mean_time_to_happen = { months = 24 }
	
	option = {		# Discover of Azores
		name = "colonial.29.a"
		ai_chance = { factor = 100 }
		discover_province = 1668 # Iberian Shelf
		discover_province = 1669 # Sea of Azores
		discover_province = 367 # Os Acores
	}
}
