########################################
# Events for Cyprus
#
# written by Johan Andersson
########################################


# Cyprus takes Famagusta
country_event = {
	id = flavor_gen.1
	title = flavor_gen.1.t
	desc = flavor_gen.1.d
	picture = MERCHANTS_TALKING_eventPicture
	
	is_triggered_only = yes
	
	option = {
		name = flavor_gen.1.a
		add_prestige = -5
		101 = {
			add_trade_modifier = {
				who = root
				duration = 3650
				power = -5
				key = famagusta_lost
			}
		}
	}
}

# We get Famagusta
country_event = {
	id = flavor_gen.2
	title = flavor_gen.2.t
	desc = flavor_gen.2.d
	picture = MERCHANTS_TALKING_eventPicture
	
	is_triggered_only = yes
	
	option = {
		name = flavor_gen.2.a
		add_prestige = 5
		101 = {
			add_trade_modifier = {
				who = root
				duration = 7300
				power = 1
				key = control_of_famagusta
			}
		}
	}
}


# The Black Sea Trade
country_event = {
	id = flavor_gen.3
	title = flavor_gen.3.t
	desc = flavor_gen.3.d
	picture = MERCHANTS_TALKING_eventPicture
	
	fire_only_once = yes
	
	trigger = {
		tag = GEN
		government = merchant_republic
		1402 = {
			owner = { primary_culture = turkish religion_group = muslim }
			NOT = { months_since_defection = 60 }
		}	#within 5 years.
		any_owned_province = {
			area = azov_area
		}
		capital_scope = {
			NOT = {
				province_id = 1298 # Tana
				province_id = 1299 # Matracha
				province_id = 2573 # Kerch
			}
		}
	}
	
	mean_time_to_happen = { months = 6 }
	
	option = {
		ai_chance = { factor = 10 }
		# ask for trade access
		name = flavor_gen.3.a
		TUR = {
			country_event = {
				id = flavor_gen.4
				tooltip = flavor_gen.3.4
				days = 1
			}
		}
	}
	option = {
		ai_chance = { factor = 90 }
		name = flavor_gen.3.b
		add_prestige = -10
		1298 = {
			add_province_modifier = {
				name = gen_lost_trade_support
				duration = -1
			}
		}
		1299 = {
			add_province_modifier = {
				name = gen_lost_trade_support
				duration = -1
			}
		}
		2573 = {
			add_province_modifier = {
				name = gen_lost_trade_support
				duration = -1
			}
		}
	}
}

# Ottomans get to reply
country_event = {
	id = flavor_gen.4
	title = flavor_gen.4.t
	desc = flavor_gen.4.d
	picture = MERCHANTS_TALKING_eventPicture
	
	is_triggered_only = yes
	
	option = {
		name = flavor_gen.4.a
		GEN = {
			add_opinion = {
				who = root
				modifier = gen_trade_access_denied
			}
			hidden_effect = {
				country_event = {
					id = flavor_gen.5
					days = 1
				}
			}
		}
		add_claim = 1298 # Tana
		add_claim = 1299 # Matracha
		add_claim = 2573 # Kerch
	}
	option = {
		name = flavor_gen.4.b
		GEN = {
			add_opinion = {
				who = root
				modifier = gen_trade_given
			}
			country_event = {
				id = flavor_gen.6
				days = 1
				tooltip = flavor_gen.4.6
			}
		}
	}
}

# Genoa doesn't get anything
country_event = {
	id = flavor_gen.5
	title = flavor_gen.5.t
	desc = flavor_gen.5.d
	picture = DIPLOMACY_eventPicture
	
	is_triggered_only = yes
	
	option = {
		name = flavor_gen.5.a
		TUR = {
			add_opinion = {
				who = root
				modifier = gen_trade_access_denied
			}
		}
		add_prestige = -10
	}
}

# We get access
country_event = {
	id = flavor_gen.6
	title = flavor_gen.6.t
	desc = flavor_gen.6.d
	picture = MERCHANTS_TALKING_eventPicture
	
	is_triggered_only = yes
	
	option = {
		name = flavor_gen.6.a
		1402 = {
			add_trade_modifier = {
				who = root
				duration = -1
				power = 10
				key = genoese_access_to_black_sea
			}
		}
	}
}

# Lose it if no more access
country_event = {
	id = flavor_gen.7
	title = flavor_gen.7.t
	desc = flavor_gen.7.d
	picture = MERCHANTS_TALKING_eventPicture
	
	fire_only_once = yes
	
	trigger = {
		tag = GEN
		OR = {
			NOT = { TUR = { owns = 1402 } }			#Constantinople
			war_with = TUR
			NOT = { GEN = { owns = 1298 owns = 1299 owns = 2573 } }
		}
		1402 = {
			has_trade_modifier = {
				who = GEN
				name = genoese_access_to_black_sea
			}
		}
	}
	
	mean_time_to_happen = { months = 1 }
	
	option = {
		name = flavor_gen.7.a
		1402 = {
			remove_trade_modifier = {
				who = GEN
				name = genoese_access_to_black_sea
			}
		}
	}
}

# Bankruptcy of the Casa San Giorgio
country_event = {
	id = flavor_gen.8
	title = flavor_gen.8.t
	desc = flavor_gen.8.d
	picture = BANKRUPTCY_eventPicture
	
	fire_only_once = yes
	
	trigger = {
		tag = GEN
		is_year = 1444
		NOT = { is_year = 1446 }
	}
	
	mean_time_to_happen = { months = 8 }
	
	option = {
		name = flavor_gen.8.a
		add_inflation = 3
	}
	
	option = {
		name = flavor_gen.8.b
		add_republican_tradition = -10
	}
}

# Guelphs vs Ghibellins in Genoa (repeats)
country_event = {
	id = flavor_gen.9
	title = flavor_gen.9.t
	desc = flavor_gen.9.d
	picture = POPE_PREACHING_eventPicture
	
	trigger = {
		tag = GEN
		government = republic
		NOT = { is_year = 1550 }
		exists = FRA
		hre_size = 10
		FRA = {
			is_emperor = no
			num_of_cities = 15
		}
	}
	
	mean_time_to_happen = { years = 12 }
	
	option = {
		name = flavor_gen.9.a
		add_republican_tradition = 1
		FRA = {
			add_opinion = {
				who = root
				modifier = gen_pro_guelph
			}
		}
		emperor = {
			add_opinion = {
				who = root
				modifier = gen_anti_ghibellines
			}
		}
	}
	
	option = {
		name = flavor_gen.9.b
		add_republican_tradition = 1
		emperor = {
			add_opinion = {
				who = root
				modifier = gen_pro_ghibellines
			}
		}
		FRA = {
			add_opinion = {
				who = root
				modifier = gen_anti_guelph
			}
		}
	}
	option = {
		name = flavor_gen.9.c
		add_republican_tradition = -2
	}
}


# Andrea Doria as leader
country_event = {
	id = flavor_gen.10
	title = flavor_gen.10.t
	desc = flavor_gen.10.d
	picture = DEBATE_REPUBLICAN_eventPicture
	
	fire_only_once = yes
	
	trigger = {
		tag = GEN
		government = republic
		is_year = 1520
		NOT = { is_year = 1540 }
		navy_tradition = 40
	}
	
	mean_time_to_happen = { months = 12 }
	
	option = {
		name = flavor_gen.10.a
		ai_chance = { factor = 90 }
		add_dip_power = -25
		define_admiral = {
			name = "Andrea Doria"
			shock = 4
			fire = 4
			manuever = 5
		}
	}
	option = {
		name = flavor_gen.10.b
		add_republican_tradition = 5
	}
}

# Andrea Doria can become ruler
country_event = {
	id = flavor_gen.11
	title = flavor_gen.11.t
	desc = flavor_gen.11.d
	picture = ELECTION_REPUBLICAN_eventPicture
	
	fire_only_once = yes
	
	trigger = {
		tag = GEN
		government = republic
		has_leader = "Andrea Doria"
		prestige = 25
	}
	
	mean_time_to_happen = { months = 12 }
	
	immediate = {
		set_country_flag = gen_andrea_doria_censor_event
	}
	
	option = {
		name = flavor_gen.11.a
		ai_chance = { factor = 30 }
		add_republican_tradition = -20
		define_ruler = {
			name = "Andrea Doria"
			dynasty = "Doria"
			DIP = 5
			ADM = 5
			MIL = 5
			attach_leader = "Andrea Doria"
		}
	}
	option = {
		name = flavor_gen.11.b
		ai_chance = { factor = 5 }
		add_stability_1 = yes
	}
}

# Reforms and French/Spanish question
country_event = {
	id = flavor_gen.12
	title = flavor_gen.12.t
	desc = flavor_gen.12.d
	picture = REFORM_eventPicture
	
	fire_only_once = yes
	
	
	trigger = {
		tag = GEN
		government = republic
		has_country_flag = gen_andrea_doria_censor_event
		exists = FRA
		exists = SPA
		italy_superregion = {
			owned_by = FRA
		}
		italy_superregion = {
			owned_by = SPA
		}
		NOT = {
			num_of_cities = 10
		}
		FRA = {
			num_of_cities = 20
		}
		SPA = {
			num_of_cities = 20
		}
	}
	
	mean_time_to_happen = { months = 48 }
	
	option = {
		name = flavor_gen.12.a
		FRA = {
			add_opinion = {
				who = root
				modifier = gen_andrea_doria_reform
			}
		}
		add_prestige = 5
	}
	option = {
		name = flavor_gen.12.b
		SPA = {
			add_opinion = {
				who = root
				modifier = gen_andrea_doria_reform
			}
		}
		add_papal_influence = 10
	}
}

# Golden Age of Bankers
country_event = {
	id = flavor_gen.13
	title = flavor_gen.13.t
	desc = flavor_gen.13.d
	picture = ECONOMY_eventPicture
	
	fire_only_once = yes
	
	trigger = {
		tag = GEN
		is_year = 1557
		NOT = { is_year = 1627 }
		NOT = { num_of_loans = 1 }
		is_bankrupt = no
	}
	
	mean_time_to_happen = { years = 10 }
	
	option = {
		name = flavor_gen.13.a
		101 = {
			add_province_modifier = {
				name = "industrious_ruler_gravity"
				duration = 3650
			}
		}
		add_inflation = -5
		capital_scope = {
			add_trade_node_income = 10
		}
	}
}

#Lost Privileges in Castile
country_event = {
	id = flavor_gen.14
	title = flavor_gen.14.t
	desc = flavor_gen.14.d
	picture = TRADEGOODS_eventPicture
	
	is_triggered_only = yes
	
	option = {
		name = "flavor_gen.14.a"
	}
}

#Gain trading privileges in Castile
country_event = {
	id = flavor_gen.15
	title = flavor_gen.15.t
	desc = flavor_gen.15.dd
	picture = TRADEGOODS_eventPicture
	
	is_triggered_only = yes
	
	option = {
		name = "flavor_gen.15.a"
		add_prestige = -5
		2311 = {
			add_trade_modifier = {
				who = GEN
				duration = 3650
				power = 20
				key = iberian_trade_privileges
			}
		}
	}
}
