

province_event = {
	id = castles.02
	title = "castles.02.t"
	desc = "castles.02.d"
	picture = CASTLE_eventPicture
	
	is_triggered_only = yes
	
	hidden = yes
	
	trigger = {
		OR = {
			has_building = local_fortification_1
			has_building = local_fortification_2
			has_building = local_fortification_3
		}
		
		num_of_units_in_province = {
			who = enemy
			type = artillery
			amount = 1
		}
	}
	
	immediate = {
		random_list = {
			40 = {
				trigger_switch = {
					on_trigger = has_building
					local_fortification_1 = {
						remove_building = local_fortification_1
					}
					local_fortification_2 = {
						remove_building = local_fortification_2
						
						add_building = local_fortification_1
					}
					local_fortification_3 = {
						remove_building = local_fortification_3
						
						add_building = local_fortification_2
					}
				}
			}
			60 = {
			}
		}
	}
	
	option = {
		name = "castles.02.a"
	}
}
