707 = "Doha"
723 = "Halbin"
725 = "Cheolli"
726 = "Jeha"
728 = "Giyamun"
729 = "Anbyeon"
731 = "Gillim"
1012 = "Seondo"
1013 = "Chungseung"
1014 = "Cheonhae"
1015 = "Salju" #Salma
1016 = "Ilju" #Ilhyang
1017 = "Bihu"
1018 = "Punghu"
1019 = "Sipseung"
1020 = "Bijeon"
1021 = "Daemado"
1022 = "Toju" #Tojwa
1023 = "Yeoju" #Iyeo
1024 = "Chanju" #Changi
1025 = "Jongyok"
1026 = "Anju" #Anun
1027 = "Jangju" #Jangmun
1028 = "Unju" #Chulun
1029 = "Bijung"
1030 = "Jakju" #Mijak
1031 = "Danju" #Danma
1032 = "Paju" #Pama
1033 = "Danhu"
2248 = "Gaeseong"
2249 = "Geumju"
2266 = "Jeokbong"
2277 = "Sangju" #Sangmo
2278 = "Pungjeon"
2279 = "Seopju" #Seopjin
2280 = "Hwaju" #Daehwa
2281 = "Giju" #Gii
2282 = "Seju" #Ise
2283 = "Sanju" #Sanseong
2284 = "Woljeon"
2285 = "Woljung"
2286 = "Biju" #Bitan
2287 = "Miju" #Mijang
2288 = "Wonju" #Wongang
2289 = "Gapju" #Gapbi
2290 = "Sinju" #Sinnong
2291 = "Wolhu"
2292 = "Yaju" #Haya
2293 = "Muju" #Mujang
2294 = "Sangyuk"
2295 = "Amju" #Amdae
2296 = "Yukjung"
2297 = "Yuju" #Yuko
2298 = "Ujeon"
2299 = "Doju" #Dodo
2300 = "Damjin"
2303 = "Gyenong"
2304 = "Gosan"
2305 = "Daepeon" #??
2435 = "Nongju" #Minong
2796 = "Gangju" #Geungang
3240 = "Daenyeong"
3241 = "Anbuk"
3242 = "Baeksan"
3243 = "Yeonbyeon"
3244 = "Morangang"
3245 = "Solbin"
3246 = "Heunggae"
3247 = "Nyeongju"
3248 = "Eosilso"
3252 = "Dalju"
3954 = "Yakju" #Yakhyeop
3258 = "Cheolryeong"
3259 = "Tongyo"
3260 = "Baekseong"
3943 = "Yukjeon"
3944 = "Banju" #Banseong
3945 = "Uhu"
3946 = "Sangya"
3947 = "Jwaju" #Jwado
3948 = "Hachong"
3949 = "Sangchong"
3950 = "Bangju" #Anbang
3951 = "Duju" #Idu
3952 = "Neungju" #Neungdeung
3953 = "Gaju" #Gaha
3955 = "Junju" #Junha
3956 = "Samju" #Samha
3957 = "Jiju" #Jima
3958 = "Iju" #Iha
3959 = "Haju" #Hanae
3960 = "Hwacheon" #Hwaju
3961 = "Danpa"
3962 = "Inju" #Inbeon
3963 = "Baekju" #Baekgi
3964 = "Bijeon"
3965 = "Seokju" #Seokgyeon
3966 = "Bihu"
3967 = "Juju" #Jubang
3968 = "Aju" #Apa
3969 = "Damju" #Damno
3970 = "Chukjeon"
3971 = "Chukhu"
3972 = "Uju" #Daeu
3973 = "Gilya"
3974 = "Chubang"
4031 = "Buyeo"
4032 = "Anwon"
4035 = "Simyang"
4036 = "Jeongyo"
4037 = "Musun"
4038 = "Pyeongseong"
