# 2170 - Shaan-gan Hantai

owner = SHU
controller = SHU

capital = "Nancheng"
trade_goods = tea
culture = bashu
religion = confucianism

hre = no

base_tax = 7
base_production = 2
base_manpower = 0

is_city = yes
urban_infrastructure_1 = yes

discovered_by = chinese
discovered_by = steppestech

967.1.1 = {
	owner = SNG
	controller = SNG
	add_core = SNG
}
1241.1.1 = {
	owner = SHU
	controller = SHU
}
1259.1.1 = {
	owner = YUA
	controller = YUA
	remove_core = SNG
}
1271.12.18 = {
	add_core = YUA
} # Proclamation of Yuan dynasty
1351.1.1 = {
	owner = CTA
	controller = CTA
	add_core = CTA
}
1356.1.1 = {
	add_core = XIA
	controller = SNG
}
1364.1.1 = {
	owner = XIA
	controller = XIA
}
1371.1.1 = {
	owner = MNG
	controller = MNG
	add_core = MNG
	remove_core = CTA
	remove_core = XIA
	remove_core = YUA
}
1420.1.1 = {
	culture = jingchu
}
1520.2.2 = {
	base_tax = 10
	base_production = 3
	base_manpower = 1
}
1644.3.19 = {
	owner = DXI
	controller = DXI
	add_core = DXI
}
1646.1.1 = {
	owner = QNG
	controller = QNG
	add_core = QNG
	remove_core = DXI
	remove_core = MNG
} # The Qing Dynasty