# 2296 - Mutsu
# GG/LS - Japanese Civil War

owner = SBA
controller = SBA
add_core = SBA

capital = "Morioka"
trade_goods = lumber
culture = tohoku
religion = mahayana #shinbutsu

hre = no

base_tax = 16
base_production = 0
base_manpower = 1

is_city = yes

discovered_by = chinese

1501.1.1 = {
	base_tax = 27
	base_production = 1
	base_manpower = 2
}
1542.1.1 = {
	discovered_by = POR
}
1600.1.1 = {
	religion = catholic
	capital = "Sendai"
}
1621.1.1 = {
	religion = mahayana #shinbutsu
}
1630.1.1 = {
	owner = JAP
	controller = JAP
	add_core = JAP
}
