# 2324 - Chiang Mai
# TM-Smiles indochina-mod for meiou

owner = LNA
controller = LNA
add_core = LNA

capital = "Chiang Mai"
trade_goods = tea
culture = lanna
religion = buddhism

hre = no

base_tax = 2
base_production = 2
base_manpower = 0

is_city = yes
marketplace = yes
urban_infrastructure_1 = yes
temple = yes
fort_14th = yes

discovered_by = chinese
discovered_by = indian

1501.1.1 = {
	base_tax = 1
	base_production = 4
	base_manpower = 1
}
1526.1.1 = {
	unrest = 4
} # Political instability after King Phraya's death
1558.1.1 = {
	add_core = TAU
	unrest = 0
} # Burmese vassal
1578.1.1 = {
	owner = TAU
	controller = TAU
} # Direct Burmese rule
1599.1.1 = {
	controller = REB
} #Shan states revolt after Burmese dynasty's crisis
1615.1.1 = {
	controller = TAU
}
1662.1.1 = {
	owner = AYU
	controller = AYU
} # Occupied by the Siamese
1663.1.1 = {
	owner = LNA
	controller = LNA
	remove_core = TAU
}
1727.1.1 = {
	unrest = 4
} # Rebellion
1728.1.1 = {
	unrest = 0
}
1752.2.28 = {
	add_core = BRM
	remove_core = TAU
}
1775.2.14 = {
	owner = SIA
	controller = SIA
	add_core = SIA
	remove_core = AYU
	remove_core = BRM
	unrest = 0
} # Conquered by the Siamese
