# 2538 - Ad Dakhiliyah

owner = OMA
controller = OMA
add_core = OMA

capital = "Nizwa"
trade_goods = palm_date
culture = omani
religion = ibadi

hre = no

base_tax = 2
base_production = 0
base_manpower = 0

is_city = yes
local_fortification_1 = yes

discovered_by = muslim
discovered_by = turkishtech

450.1.1 = {
	set_province_flag = tribals_control_province
}
1356.1.1 = {
	set_province_flag = add_local_autonomy_75
}
1480.1.1 = {
	discovered_by = TUR
}
1507.6.1 = {
	discovered_by = POR
	#owner = POR
	#controller = POR
} # Captured by the Portuguese
1533.1.1 = {
	add_core = POR
}
1550.1.1 = {
	owner = TUR
	controller = TUR
	add_core = TUR
} # Occupied by the Ottomans
1551.1.1 = {
	owner = POR
	controller = POR
}
1581.1.1 = {
	owner = TUR
	controller = TUR
}
1588.1.1 = {
	owner = POR
	controller = POR
}
1624.1.1 = {
	owner = OMA
	controller = OMA
	remove_core = TUR
	remove_core = POR
}
1630.1.1 = {
	fort_14th = yes
}
1679.1.1 = {
	unrest = 5
} # Internal unrest upon Imam's death
1741.1.1 = {
	owner = PER
	controller = PER
	add_core = PER
} # Invaded by Persia
1749.6.10 = {
	owner = OMA
	controller = OMA
	remove_core = PER
	unrest = 0
}
