# 2602 - Texistepec

# owner = ZAP
# controller = ZAP
# add_core = ZAP

capital = "Texistepec"
trade_goods = maize
culture = zoque
religion = nahuatl

hre = no

base_tax = 7
base_production = 0
base_manpower = 0

# citysize = 4000

discovered_by = mesoamerican

450.1.1 = {
	set_province_flag = tribals_control_province
}
1521.8.13 = {
	discovered_by = SPA
}
1530.1.1 = {
	owner = SPA
	controller = SPA
	add_core = SPA
	capital = "Chiapas de Corzo"
	base_tax = 4
	base_production = 4
	base_manpower = 3
	citysize = 2000
	trade_goods = maize
}
1553.1.1 = {
	add_core = SPA
}
1750.1.1 = {
	add_core = MEX
	culture = mexican
	citysize = 2000
}
1810.9.16 = {
	owner = MEX
} # Declaration of Independence
1821.8.24 = {
	controller = MEX
	remove_core = SPA
} # Treaty of Cordba
1832.10.1 = {
	unrest = 3
} # Convention of 1832
1833.4.1 = {
	unrest = 6
} # Convention of 1833
