# 2619 - Vogtland

owner = BOH
controller = BOH
add_core = BOH

capital = "Plauen"
trade_goods = wheat
culture = high_saxon
religion = catholic

hre = yes

base_tax = 5
base_production = 0
base_manpower = 0

is_city = yes
local_fortification_1 = yes

discovered_by = eastern
discovered_by = western
discovered_by = muslim

1356.1.1 = {
	add_core = MEI
	add_core = REU
}
1357.1.1 = {
	owner = MEI
	controller = MEI
	add_core = MEI
	remove_core = BOH
} # Margraviate of Meissen receives Vogtland
1423.6.1 = {
	owner = SAX
	controller = SAX
	add_core = SAX
	remove_core = MEI
} # Margraviate of Meissen inherits Saxony and becomes the Elector.
1500.1.1 = {
	road_network = yes
}
1520.12.10 = {
	religion = protestant
	#reformation_center = protestant
}
1547.5.19 = {
	owner = BOH
	controller = BOH
	add_core = BOH
	remove_core = SAX
} # Treaty of Wittenberg
1559.1.1 = {
	owner = SAX
	controller = SAX
	add_core = SAX
	remove_core = BOH
} # Vogtland is given back again.
1560.1.1 = {
	fort_16th = yes
}
1790.8.1 = {
	unrest = 5
} # Peasant revolt
1791.1.1 = {
	unrest = 0
}
1806.7.12 = {
	hre = no
} # The Holy Roman Empire is dissolved
