# No previous file for Somkheti

owner = ARM
controller = ARM
add_core = ARM

capital = "Lori"
trade_goods = wheat
culture = owm_armenian
religion = coptic

hre = no

base_tax = 3
base_production = 0
base_manpower = 0

is_city = yes
temple = yes
road_network = yes

discovered_by = muslim
discovered_by = eastern
discovered_by = western
discovered_by = steppestech
discovered_by = turkishtech

1356.1.1 = {
	add_core = GEO
}
1360.1.1 = {
	owner = QAR
	controller = QAR
	add_core = QAR
}
1393.1.1 = {
	owner = TIM
	controller = TIM
}
1408.1.1 = {
	controller = QAR
}
1409.1.1 = {
	owner = QAR
}
1431.1.1 = {
	owner = GEO
	controller = GEO
}
1444.1.1 = {
	add_core = KRT
}
1458.1.1 = {
	unrest = 5
} # Safavid campaign against Georgia
1460.1.1 = {
	unrest = 0
} # Defeated by Shirwan Shah
1466.1.1 = {
	owner = KRT
	controller = KRT
	add_core = KRT
	remove_core = GEO
}
1600.1.1 = {
	fort_14th = yes
}
1625.1.1 = {
	unrest = 8
} # Insurrection, headed by Giorgi Saakadze
1630.1.1 = {
	unrest = 0
}
1723.1.1 = {
	controller = TUR
} # Ottoman-Persian War, Kartli is invaded by Turkish troops
1727.1.1 = {
	owner = GEO
	controller = GEO
	add_core = GEO
}
1810.2.20 = {
	owner = RUS
	controller = RUS
	add_core = RUS
	remove_core = TUR
} # Annexed by Russia
