# 3955 - Suruga

owner = IGW
controller = IGW
add_core = IGW

capital = "Sunpu"
trade_goods = fish
culture = chubu
religion = mahayana

hre = no

base_tax = 10
base_production = 1
base_manpower = 1

is_city = yes
harbour_infrastructure_1 = yes
town_hall = yes
road_network = yes

discovered_by = chinese

450.1.1 = {
	add_permanent_province_modifier = {
		name = "suruga_natural_harbour"
		duration = -1
	}
}
1501.1.1 = {
	base_tax = 13
	base_production = 6
	base_manpower = 3
}
1542.1.1 = {
	discovered_by = POR
}
1615.6.4 = {
	owner = JAP
	controller = JAP
	add_core = JAP
}
