# 3983 - Zubtsov

owner = TVE
controller = TVE
add_core = TVE

capital = "Zubtsov"
trade_goods = lumber
culture = russian
religion = orthodox

hre = no

base_tax = 3
base_production = 0
base_manpower = 0

is_city = yes

discovered_by = eastern
discovered_by = western
discovered_by = steppestech
discovered_by = turkishtech
discovered_by = muslim

1460.1.1 = {
	remove_province_modifier = subject_principality
}
1485.9.12 = {
	owner = MOS
	controller = MOS
	add_core = MOS
	remove_core = TVE
} # Passed to Muscovy
1521.1.1 = {
	base_tax = 4
}
1547.1.1 = {
	owner = RUS
	controller = RUS
	add_core = RUS
	remove_core = MOS
} # Ivan Grozny becomes the first Tsar of Russia
1598.1.1 = {
	unrest = 5
} # "Time of troubles"
1613.1.1 = {
	unrest = 0
} # Order returned, Romanov dynasty
1670.1.1 = {
	unrest = 8
} # Stepan Razin
1671.1.1 = {
	unrest = 0
} # Razin is captured
1773.1.1 = {
	unrest = 5
} # Emelian Pugachev, Cossack insurrection
1774.9.14 = {
	unrest = 0
} # Pugachev is captured
