# 4211 - Dien Chau

owner = DAI
controller = DAI
add_core = DAI

capital = "Dien Chau"
trade_goods = fish
culture = vietnamese
religion = mahayana

hre = no

base_tax = 3
base_production = 0
base_manpower = 0

is_city = yes
harbour_infrastructure_1 = yes

discovered_by = chinese
discovered_by = indian
discovered_by = muslim

1372.1.1 = {
	controller = CHA
}
1390.1.1 = {
	controller = DAI
}
1407.6.17 = {
	owner = MNG
	controller = MNG
}
1425.1.1 = {
	religion = confucianism
}
1427.1.1 = {
	owner = DAI
	controller = DAI
}
1501.1.1 = {
	base_tax = 4
}
1519.4.2 = {
	wharf = yes
}
1522.4.4 = {
	marketplace = yes
}
1535.1.1 = {
	owner = ANN
	controller = ANN
	add_core = ANN
} # Restoriationist
1545.1.1 = {
	owner = TOK
	controller = TOK
	add_core = TOK
	remove_core = ANN
} # Nguyen Kim dies
1558.1.1 = {
	owner = ANN
	controller = ANN
	add_core = ANN
	remove_core = TOK
} # Nguyen Hoang
1600.1.1 = {
	owner = TOK
	controller = TOK
	add_core = TOK
}
1653.1.1 = {
	controller = ANN
}
1654.1.1 = {
	controller = TOK
}
1730.1.1 = {
	unrest = 5
} # Peasant revolt
1731.1.1 = {
	unrest = 0
}
1769.1.1 = {
	unrest = 6
} # Tay Son Rebellion
1776.1.1 = {
	unrest = 0
	owner = DAI
	controller = DAI
	add_core = DAI
} # Tay Son Dynasty conquered the Nguyen Lords
1786.1.1 = {
	unrest = 5
} # Unsuccessful revolt
1787.1.1 = {
	unrest = 0
}
1802.7.22 = {
	owner = ANN
	controller = ANN
	remove_core = DAI
} # Nguyen Phuc Anh conquered the Tay Son Dynasty
1883.8.25 = {
	owner = FRA
	controller = FRA
}
