# 4212 - Muang Song

owner = LXA
controller = LXA
add_core = LXA

capital = "Muang Song"
trade_goods = rice
culture = laotian
religion = buddhism

hre = no

base_tax = 3
base_production = 0
base_manpower = 0

is_city = yes
temple = yes

discovered_by = chinese
discovered_by = indian

1478.1.1 = {
	owner = DAI
	controller = DAI
}
1480.1.1 = {
	owner = LXA
	controller = LXA
}
1811.1.1 = {
	unrest = 5
} # The Siamese-Cambodian Rebellion
1812.1.1 = {
	unrest = 0
}
1829.1.1 = {
	owner = SIA
	controller = SIA
	add_core = SIA
	unrest = 0
} # Annexed by Siam
1893.1.1 = {
	owner = FRA
	controller = FRA
	unrest = 0
}
