# 5426 Fuliang

owner = YUA
controller = YUA

capital = "Fuliang"
trade_goods = rice
culture = huizhou
religion = confucianism

hre = no

base_tax = 48
base_production = 7
base_manpower = 3

is_city = yes
urban_infrastructure_1 = yes
manufactory = yes
warehouse = yes
marketplace = yes

discovered_by = chinese
discovered_by = steppestech

500.1.1 = {
	add_permanent_province_modifier = {
		name = urban_goods_chinaware
		duration = -1
	}
}
1276.1.1 = {
	owner = YUA
	controller = YUA
	add_core = YUA
}
1300.1.1 = {
	set_province_flag = mined_goods
	set_province_flag = marble #KAOLIN for Chinaware
}
1351.1.1 = {
	owner = CNG
	controller = CNG
	add_core = CNG
}
1357.1.1 = {
	owner = DAA
	controller = DAA
	add_core = DAA
	remove_core = DAA
}
1362.1.11 = {
	owner = MNG
	controller = MNG
	add_core = MNG
	remove_core = DAA
}
1520.2.2 = {
	base_tax = 60
	base_production = 8
	base_manpower = 4
}
1645.6.25 = {
	owner = QNG
	controller = QNG
	add_core = QNG
} # The Qing Dynasty
1662.1.1 = {
	remove_core = MNG
}
