# 5437 shunzhou

owner = YUE
controller = YUE

capital = "Longchuan"
trade_goods = lumber
culture = hakka
religion = confucianism

hre = no

base_tax = 11
base_production = 0
base_manpower = 0

is_city = yes
road_network = yes
temple = yes

discovered_by = chinese
discovered_by = steppestech

985.1.1 = {
	owner = SNG
	controller = SNG
	add_core = SNG
}
1276.1.1 = {
	owner = YUA
	controller = YUA
	add_core = YUA
}
1351.1.1 = {
	owner = YUE
	controller = YUE
	add_core = YUE
}
1369.3.17 = {
	owner = MNG
	controller = MNG
	add_core = MNG
	remove_core = YUA
	remove_core = YUE
}
1520.2.2 = {
	base_tax = 17
	base_manpower = 1
}
1645.6.25 = {
	owner = QNG
	controller = QNG
	add_core = QNG
} # The Qing Dynasty
1662.1.1 = {
	remove_core = MNG
}
