# 610 - Thanh Hoa

owner = DAI
controller = DAI
add_core = DAI

capital = "Tay Do"
trade_goods = tea
culture = vietnamese
religion = mahayana

hre = no

base_tax = 8
base_production = 0
base_manpower = 0

is_city = yes
temple = yes

discovered_by = chinese
discovered_by = indian
discovered_by = muslim

1372.1.1 = {
	controller = CHA
}
1390.1.1 = {
	controller = DAI
}
#1400.1.1 = {
#	fort_14th = yes
#}
1407.6.17 = {
	owner = MNG
	controller = MNG
}
1425.1.1 = {
	religion = confucianism
}
1427.1.1 = {
	owner = DAI
	controller = DAI
}
1501.1.1 = {
	base_tax = 10
}
1520.1.1 = {
	owner = TOK
	controller = TOK
	add_core = TOK
	capital = "Thanh Hoa"
} # Trinh and Nguyens move the Emperor to the south
1524.1.1 = {
	owner = DAI
	controller = DAI
	remove_core = TOK
} #Rebellion is quelled
1527.6.15 = {
	owner = ANN
	controller = ANN
	add_core = ANN
} # Rebellion starts again
1530.1.1 = {
	owner = DAI
	controller = DAI
} # Rebels pushed into Laotian territory
1533.1.1 = {
	owner = ANN
	controller = ANN
} # Rebels return
1545.1.1 = {
	owner = TOK
	controller = TOK
	add_core = TOK
} # Restoriationist
1730.1.1 = {
	unrest = 5
} # Peasant revolt
1731.1.1 = {
	unrest = 0
}
1769.1.1 = {
	unrest = 6
} # Tay Son Rebellion
1776.1.1 = {
	unrest = 0
	owner = DAI
	controller = DAI
	add_core = DAI
} # Tay Son Dynasty conquered the Nguyen Lords
1786.1.1 = {
	unrest = 5
} # Unsuccessful revolt
1787.1.1 = {
	unrest = 0
}
1802.7.22 = {
	owner = ANN
	controller = ANN
	remove_core = DAI
} # Nguyen Phuc Anh conquered the Tay Son Dynasty
1883.8.25 = {
	owner = FRA
	controller = FRA
}
