# 671 - Guanxi Jiangzhou

owner = YUA
add_core = YUA
controller = YUA

capital = "Chongshan"
trade_goods = hemp
culture = tay_nung
religion = animism

hre = no

base_tax = 5
base_production = 2
base_manpower = 0

is_city = yes
urban_infrastructure_1 = yes

discovered_by = chinese
discovered_by = steppestech

450.1.1 = {
	set_province_flag = tribals_control_province
}
985.1.1 = {
	owner = SNG
	controller = SNG
	add_core = SNG
}
1200.1.1 = {
	add_permanent_province_modifier = {
		name = urban_goods_cloth
		duration = -1
	}
}
1320.1.1 = {
	remove_core = SNG
}
1351.1.1 = {
	owner = ZHN
	controller = ZHN
	add_core = ZHN
}
1375.1.1 = {
	owner = MNG
	controller = MNG
	add_core = MNG
	remove_core = ZHN
	remove_core = YUA
}
1521.1.1 = {
	base_tax = 8
	base_production = 3
}
1662.1.1 = {
	owner = QNG
	controller = QNG
	add_core = QNG
	remove_core = MNG
} # The Qing Dynasty