government = native_council
mercantilism = 0.1
primary_culture = shawnee
religion = totemism
technology_group = north_american
capital = 3617

1000.1.1   = {
	set_variable = { which = "centralization_decentralization" value = 5 }
}

1356.1.1 = {
	monarch = {
		name = "Hokoleskwa"
		adm = 2
		dip = 1
		mil = 2
	}
}

1550.1.1 = {
	monarch = {
		name = "Cottawamago"
		adm = 3
		dip = 2
		mil = 2
	}
}

1725.1.1 = {
	monarch = {
		name = "Paxinos"
		adm = 4
		dip = 1
		mil = 2
	}
}

1755.1.1 = {
	monarch = {
		name = "Wynepuechisika"
		adm = 1
		dip = 2
		mil = 3
	}
}

1777.1.1 = {
	monarch = {
		name = "Weyapersenwah"
		adm = 1
		dip = 0
		mil = 1
	}
}

1800.1.1 = {
	monarch = {
		name = "Tecumseh"
		adm = 5
		dip = 6
		mil = 5
		leader = { name = "Tecumseh" type = general	rank = 0 fire = 5 shock = 2 manuever = 5 siege = 1 }
	}
}
