integration_of_minorities = {
	
	category = 3
	
	allow = {
		always = no
		#	any_owned_province = {
		#		has_owner_accepted_culture = no
		#	}
		#	NOT = { has_idea_group = religious_ideas }
	}
	
	effect = {
		random_owned_province = {
			limit = {
				has_owner_accepted_culture = no
				has_seat_in_parliament = no
			}
			set_seat_in_parliament = yes
		}
	}
	
	modifier = {
		num_accepted_cultures = 1
	}
	
	ai_will_do = {
		factor = 1
		modifier = {
			factor = 2
			num_of_owned_provinces_with = {
				value = 10
				has_owner_accepted_culture = no
			}
		}
	}
}