country_decisions = {
	
	claim_sharif = {
		potential = {
			religion_group = muslim
			NOT = { religion = druze }
			OR = {
				culture_group = arabian
				culture_group = mashreqi
			}
			is_colonial_nation = no
			NOT = { has_country_modifier = sharif }
			NOT = { has_country_flag = caliph }
		}
		allow = {
			is_at_war = no
			OR = {
				legitimacy = 100
				devotion = 100
			}
			NOT = { government = republic }
			stability = 0
			piety = 0.20
			OR = {
				stability = 2
				owns_or_non_sovereign_subject_of = 384
				owns_or_non_sovereign_subject_of = 385
			}
			ADM = 4
			adm_power = 25
		}
		effect = {
			add_adm_power = -25
			add_country_modifier = { name = sharif duration = -1 }
			add_piety = 0.05
			add_patriarch_authority = -0.05
			if = {
				limit = { piety = 0.60 }
				add_prestige = 3
				add_legitimacy = 6
			}
			if = {
				limit = { NOT = { piety = 0.60 } }
				add_prestige = 2
				add_legitimacy = 4
			}
		}
		ai_will_do = {
			factor = 1
		}
	}
	
	claim_caliph = {
		potential = {
			has_country_modifier = sharif
			religion = sunni
			NOT = { has_country_flag = caliph }
		}
		allow = {
			is_at_war = no
			is_free_or_tributary_trigger = yes
			legitimacy = 100
			stability = 2
			piety = 0.20
			NOT = { num_of_revolts = 1 }
			ADM = 4
			prestige = 25
			NOT = {
				any_neighbor_country = {
					religion_group = muslim
					num_of_cities = ROOT
				}
			}
		}
		effect = {
			add_mil_power = -25
			remove_country_modifier = sharif
			hidden_effect = {
				set_country_flag = caliph
				set_country_flag = ruler_as_caliph
			}
			add_piety = 0.05
			add_patriarch_authority = -0.05
			if = {
				limit = { piety = 0.60 }
				add_prestige = 6
				add_legitimacy = 12
			}
			if = {
				limit = { NOT = { piety = 0.60 } }
				add_prestige = 4
				add_legitimacy = 8
			}
			#notification event here
			every_country = {
				limit = {
					NOT = { tag = ROOT }
					OR = {
						AND = {
							has_country_flag = religious_news_all
							NOT = { religion_group = muslim }
							OR = {
								marriage_with = ROOT
								alliance_with = ROOT
								is_rival = ROOT
								is_enemy = ROOT
								truce_with = ROOT
								war_with = ROOT
								is_neighbor_of = ROOT
							}
						}
						AND = {
							religion_group = muslim
							has_country_flag = religious_news_trivial
						}
						AND = {
							religion_group = muslim
							OR = {
								has_country_flag = religious_news_major
								ai = yes
							}
							OR = {
								has_country_flag = caliph
								marriage_with = ROOT
								alliance_with = ROOT
								is_rival = ROOT
								is_enemy = ROOT
								truce_with = ROOT
								war_with = ROOT
								is_neighbor_of = ROOT
								piety = 0.60
								NOT = { capital_distance = { who = ROOT distance = 200 } }
							}
						}
					}
				}
				country_event = { id = dg_islam.061 days = 100 }
			}
		}
		ai_will_do = {
			factor = 1
		}
	}
	
	sheikh_ul_islam = {
		potential = {
			religion_group = muslim
			NOT = { religion = druze }
			NOT = { has_country_modifier = sheikh_ul_islam }
			has_country_flag = ulama_patronage
		}
		allow = {
			capital_scope = {
				OR = {
					has_province_modifier = hanafi_local
					has_province_modifier = hanbali_local
					has_province_modifier = maliki_local
					has_province_modifier = shafii_local
					has_province_modifier = usuli_local
					has_province_modifier = akhbari_local
				}
			}
			ADM = 2
			has_regency = no
		}
		effect = {
			if = {
				limit = {
					NOT = { has_country_flag = caliph }
					NOT = { has_country_modifier = sheikh_ul_islam }
				}
				custom_tooltip = religious_head_enabled
			}
			add_country_modifier = { name = sheikh_ul_islam duration = -1 }
			if = {
				limit = { NOT = { has_country_flag = ulama_government } }
				add_patriarch_authority = 0.05
				add_piety = -0.05
			}
		}
		ai_will_do = {
			factor = 1
			modifier = {
				has_country_flag = sufi_government
				factor = 0
			}
			modifier = {
				has_country_flag = sufi_influence
				factor = 0
			}
			modifier = {
				stability = 1
				factor = 0
			}
			modifier = {
				NOT = { treasury = 100 }
				factor = 0
			}
		}
	}
	hajj_pilgrimage = {
		potential = {
			OR = {
				religion = sunni
				religion = wahhabi
			}
			NOT = { has_country_flag = hajj_undertaken }
			OR = {
				384 = { owner = { religion = sunni } }
				385 = { owner = { religion = sunni } }
				384 = { owner = { religion = wahhabi } }
				385 = { owner = { religion = wahhabi } }
			}
			NOT = { capital = 385 }
			NOT = { capital = 384 }
			NOT = { has_country_flag = civil_war }
			NOT = { has_country_flag = total_war }
		}
		allow = {
			NOT = { is_at_war = yes }
			NOT = { has_regency = yes }
			NOT = { has_country_modifier = ruler_hajj }
			NOT = { has_country_modifier = religious_scandal_country }
			NOT = { has_country_modifier = missionary_zeal }
			treasury = 5
		}
		effect = {
			if = {
				limit = { NOT = { has_country_flag = hajj_promised } }
				add_piety = 0.10
			}
			if = {
				limit = { has_country_flag = hajj_promised }
				add_piety = 0.05
			}
			hidden_effect = {
				clr_country_flag = hajj_promised
				set_country_flag = hajj_undertaken
			}
			if = {
				limit = {
					OR = {
						owns = 384 # Al Madina
						owns = 385 # Makka
					}
				}
				add_treasury = -1
				add_country_modifier = { name = ruler_hajj duration = 25 }
				if = {
					limit = { piety = 0.60 }
					add_prestige = 2
				}
				if = {
					limit = {
						NOT = { piety = 0.60 }
						piety = 0.20
					}
					add_prestige = 1
				}
			}
			if = {
				limit = {
					NOT = {
						OR = {
							owns = 384 # Al Madina
							owns = 385 # Makka
						}
					}
					any_country = {
						owns = 384 # Al Madina
						NOT = { capital_distance = { who = ROOT distance = 150 } }
					}
				}
				add_treasury = -2
				add_country_modifier = { name = ruler_hajj duration = 50 }
				if = {
					limit = { piety = 0.60 }
					add_prestige = 2
				}
				if = {
					limit = {
						NOT = { piety = 0.60 }
						piety = 0.20
					}
					add_prestige = 1
				}
			}
			if = {
				limit = {
					NOT = {
						OR = {
							owns = 384 # Al Madina
							owns = 385 # Makka
						}
					}
					any_country = {
						owns = 384 # Al Madina
						capital_distance = { who = ROOT distance = 150 }
						NOT = { capital_distance = { who = ROOT distance = 300 } }
					}
				}
				add_treasury = -5
				add_country_modifier = { name = ruler_hajj duration = 100 }
				if = {
					limit = { piety = 0.60 }
					add_prestige = 3
				}
				if = {
					limit = {
						NOT = { piety = 0.60 }
						piety = 0.20
					}
					add_prestige = 2
				}
				if = {
					limit = {
						NOT = { piety = 0.20 }
						piety = -0.20
					}
					add_prestige = 1
				}
			}
			if = {
				limit = {
					NOT = {
						OR = {
							owns = 384 # Al Madina
							owns = 385 # Makka
						}
					}
					any_country = {
						owns = 384 # Al Madina
						capital_distance = { who = ROOT distance = 300 }
						NOT = { capital_distance = { who = ROOT distance = 600 } }
					}
				}
				add_treasury = -10
				add_country_modifier = { name = ruler_hajj duration = 200 }
				if = {
					limit = { piety = 0.60 }
					add_prestige = 4
				}
				if = {
					limit = {
						NOT = { piety = 0.60 }
						piety = 0.20
					}
					add_prestige = 3
				}
				if = {
					limit = {
						NOT = { piety = 0.20 }
						piety = -0.20
					}
					add_prestige = 2
				}
				if = {
					limit = { NOT = { piety = -0.20 } }
					add_prestige = 1
				}
			}
			if = {
				limit = {
					NOT = {
						OR = {
							owns = 384 # Al Madina
							owns = 385 # Makka
						}
					}
					any_country = {
						owns = 384 # Al Madina
						capital_distance = { who = ROOT distance = 600 }
						NOT = { capital_distance = { who = ROOT distance = 1200 } }
					}
				}
				add_treasury = -20
				add_country_modifier = { name = ruler_hajj duration = 400 }
				if = {
					limit = { piety = 0.60 }
					add_prestige = 5
				}
				if = {
					limit = {
						NOT = { piety = 0.60 }
						piety = 0.20
					}
					add_prestige = 4
				}
				if = {
					limit = {
						NOT = { piety = 0.20 }
						piety = -0.20
					}
					add_prestige = 3
				}
				if = {
					limit = { NOT = { piety = -0.20 } }
					add_prestige = 2
				}
			}
			if = {
				limit = {
					NOT = { OR = { owns = 384 owns = 385 } }
					any_country = {
						owns = 384 # Al Madina
						capital_distance = { who = ROOT distance = 1200 }
					}
				}
				add_treasury = -40
				add_country_modifier = { name = ruler_hajj duration = 800 }
				if = {
					limit = { piety = 0.60 }
					add_prestige = 6
				}
				if = {
					limit = {
						NOT = { piety = 0.60 }
						piety = 0.20
					}
					add_prestige = 5
				}
				if = {
					limit = {
						NOT = { piety = 0.20 }
						piety = -0.20
					}
					add_prestige = 4
				}
				if = {
					limit = { NOT = { piety = -0.20 } }
					add_prestige = 3
				}
			}
		}
		ai_will_do = {
			factor = 0 #Use event instead
		}
	}
	sufi_patronage = {
		potential = {
			OR = {
				religion = sunni
				religion = shiite
			}
			NOT = { has_country_flag = sufi_patronage }
		}
		allow = {
			OR = {
				patriarch_authority = 0.50
				advisor = theologian
				advisor = inquisitor
			}
			is_at_war = no
			capital_scope = {
				OR = {
					has_province_modifier = reform_sufis
					has_province_modifier = sharia_sufis
					has_province_modifier = shrine_sufis
					has_province_modifier = charismatic_sufis
				}
			}
		}
		effect = {
			hidden_effect = { set_country_flag = sufi_patronage }
			add_patriarch_authority = 0.05
			add_piety = -0.05
			if = {
				limit = { piety = 0.60 }
				add_prestige = 6
			}
			if = {
				limit = {
					piety = 0.20
					NOT = { piety = 0.60 }
				}
				add_prestige = 4
			}
			if = {
				limit = {
					piety = -0.20
					NOT = { piety = 0.20 }
				}
				add_prestige = 2
			}
			remove_country_modifier = unhappy_church_powerful
			remove_country_modifier = unhappy_church_strong
			remove_country_modifier = unhappy_church_moderate
			remove_country_modifier = unhappy_church_weak
			remove_country_modifier = unhappy_church_impotent
			remove_country_modifier = religious_scandal_country_strong
			remove_country_modifier = religious_scandal_country
			remove_country_modifier = religious_scandal_country_weak
		}
		ai_will_do = {
			factor = 1
			modifier = {
				has_country_flag = ulama_influence
				factor = 0
			}
			modifier = {
				government = republic
				factor = 0
			}
		}
	}
	ulama_patronage = {
		potential = {
			OR = {
				religion = sunni
				religion = shiite
			}
			NOT = { has_country_flag = ulama_patronage }
		}
		allow = {
			OR = {
				patriarch_authority = 0.50
				advisor = theologian
				advisor = inquisitor
			}
			is_at_war = no
			capital_scope = {
				OR = {
					has_province_modifier = shafii_local
					has_province_modifier = maliki_local
					has_province_modifier = hanbali_local
					has_province_modifier = hanafi_local
					has_province_modifier = akhbari_local
					has_province_modifier = usuli_local
				}
			}
		}
		effect = {
			hidden_effect = { set_country_flag = ulama_patronage }
			add_patriarch_authority = 0.05
			add_piety = -0.05
			if = {
				limit = { piety = 0.60 }
				add_legitimacy = 6
			}
			if = {
				limit = {
					piety = 0.20
					NOT = { piety = 0.60 }
				}
				add_legitimacy = 4
			}
			if = {
				limit = {
					piety = -0.20
					NOT = { piety = 0.20 }
				}
				add_legitimacy = 2
			}
			remove_country_modifier = unhappy_church_powerful
			remove_country_modifier = unhappy_church_strong
			remove_country_modifier = unhappy_church_moderate
			remove_country_modifier = unhappy_church_weak
			remove_country_modifier = unhappy_church_impotent
			remove_country_modifier = religious_scandal_country_strong
			remove_country_modifier = religious_scandal_country
			remove_country_modifier = religious_scandal_country_weak
		}
		ai_will_do = {
			factor = 1
			modifier = {
				has_country_flag = sufi_influence
				factor = 0
			}
			modifier = {
				is_tribal = yes
				factor = 0
			}
		}
	}
	sufi_government = {
		potential = {
			OR = {
				religion = sunni
				religion = shiite
			}
			has_country_flag = sufi_patronage
			had_country_flag = { flag = sufi_patronage days = 10000 }
			NOT = { has_country_flag = sufi_government }
		}
		allow = {
			OR = {
				patriarch_authority = 0.50
				advisor = theologian
				advisor = inquisitor
			}
			is_at_war = no
			capital_scope = {
				OR = {
					has_province_modifier = reform_sufis
					has_province_modifier = sharia_sufis
					has_province_modifier = shrine_sufis
					has_province_modifier = charismatic_sufis
				}
			}
		}
		effect = {
			hidden_effect = { set_country_flag = sufi_government }
			add_patriarch_authority = 0.05
			add_piety = -0.05
			if = {
				limit = { piety = 0.60 }
				add_prestige = 6
			}
			if = {
				limit = {
					piety = 0.20
					NOT = { piety = 0.60 }
				}
				add_prestige = 4
			}
			remove_country_modifier = unhappy_church_powerful
			remove_country_modifier = unhappy_church_strong
			remove_country_modifier = unhappy_church_moderate
			remove_country_modifier = unhappy_church_weak
			remove_country_modifier = unhappy_church_impotent
			remove_country_modifier = religious_scandal_country_strong
			remove_country_modifier = religious_scandal_country
			remove_country_modifier = religious_scandal_country_weak
		}
		ai_will_do = {
			factor = 1
			modifier = {
				has_country_flag = ulama_influence
				factor = 0
			}
			modifier = {
				culture_group = arabian
				factor = 0
			}
			modifier = {
				government = republic
				factor = 0
			}
		}
	}
	ulama_government = {
		potential = {
			OR = {
				religion = sunni
				religion = shiite
			}
			has_country_flag = ulama_patronage
			had_country_flag = { flag = ulama_patronage days = 10000 }
			NOT = { has_country_flag = ulama_government }
		}
		allow = {
			OR = {
				patriarch_authority = 0.50
				advisor = theologian
				advisor = inquisitor
			}
			is_at_war = no
			capital_scope = {
				OR = {
					has_province_modifier = shafii_local
					has_province_modifier = maliki_local
					has_province_modifier = hanbali_local
					has_province_modifier = hanafi_local
					has_province_modifier = akhbari_local
					has_province_modifier = usuli_local
				}
			}
		}
		effect = {
			hidden_effect = { set_country_flag = ulama_government }
			add_patriarch_authority = 0.05
			add_piety = -0.05
			if = {
				limit = { piety = 0.60 }
				add_legitimacy = 6
			}
			if = {
				limit = {
					piety = 0.20
					NOT = { piety = 0.60 }
				}
				add_legitimacy = 4
			}
			remove_country_modifier = unhappy_church_powerful
			remove_country_modifier = unhappy_church_strong
			remove_country_modifier = unhappy_church_moderate
			remove_country_modifier = unhappy_church_weak
			remove_country_modifier = unhappy_church_impotent
			remove_country_modifier = religious_scandal_country_strong
			remove_country_modifier = religious_scandal_country
			remove_country_modifier = religious_scandal_country_weak
		}
		ai_will_do = {
			factor = 1
			modifier = {
				has_country_flag = sufi_influence
				factor = 0
			}
			modifier = {
				is_tribal = yes
				factor = 0
			}
		}
	}
	claim_caliphate = {
		potential = {
			religion = sunni
			OR = {
				total_development = 200
				government_rank = 4
			}
			is_free_or_tributary_trigger = yes
			is_tribal = no
			NOT = { has_country_flag = caliph }
			NOT = {
				OR = {
					culture_group = arabian
					culture_group = mashreqi
				}
			}
			NOT = { government = republic }
		}
		allow = {
			custom_trigger_tooltip = {
				NOT = {
					any_country = {
						has_country_flag = caliph
						check_variable = { which = caliph_authority value = 20 }
					}
				}
				tooltip = no_strong_caliph
			}
			ADM = 4
			DIP = 4
			MIL = 4
			mil_power = 100
			has_regency = no
			prestige = 60
			total_development = 200
			government_rank = 4
			NOT = { any_neighbor_country = { army_size = ROOT } }
		}
		effect = {
			add_mil_power = -100
			every_country = {
				limit = { has_country_flag = caliph num_of_cities = 1 }
				add_historical_rival = ROOT
			}
			set_country_flag = caliph
			set_country_flag = ruler_as_caliph
			add_piety = 0.05
			add_patriarch_authority = -0.05
			if = {
				limit = { piety = 0.60 }
				add_prestige = 6
				add_legitimacy = 12
			}
			if = {
				limit = { NOT = { piety = 0.60 } }
				add_prestige = 4
				add_legitimacy = 8
			}
			#notification event here
			every_country = {
				limit = {
					NOT = { tag = ROOT }
					OR = {
						AND = {
							has_country_flag = religious_news_all
							NOT = { religion_group = muslim }
							OR = {
								marriage_with = ROOT
								alliance_with = ROOT
								is_rival = ROOT
								is_enemy = ROOT
								truce_with = ROOT
								war_with = ROOT
								is_neighbor_of = ROOT
							}
						}
						AND = {
							religion_group = muslim
							has_country_flag = religious_news_trivial
						}
						AND = {
							religion_group = muslim
							OR = {
								has_country_flag = religious_news_major
								ai = yes
							}
							OR = {
								has_country_flag = caliph
								marriage_with = ROOT
								alliance_with = ROOT
								is_rival = ROOT
								is_enemy = ROOT
								truce_with = ROOT
								war_with = ROOT
								is_neighbor_of = ROOT
								piety = 0.60
								NOT = { capital_distance = { who = ROOT distance = 200 } }
							}
						}
					}
				}
				country_event = { id = dg_islam.061 days = 100 }
			}
		}
		ai_will_do = {
			factor = 1
		}
	}
	
}

