
 ##################################################################
 ### Terrain Categories
 ###
 ###

categories = {
	pti = {
		type = pti
	}
	
	ocean = {
		movement_cost = 1.0
		
		is_water = yes
		sound_type = sea
		color = { 255 255 255 }
	}
	
	inland_ocean = {
		movement_cost = 1.0
		
		is_water = yes
		inland_sea = yes
		sound_type = sea
		color = { 0 0 200 }
		
		terrain_override = {
			1851 1853 1856 2782 2784
		}
	}
	
	arctic = {
		movement_cost = 2.0
		
		attrition = 1
		
		supply_limit = 4
		type = arctic
		sound_type = desert
		color = { 235 235 235 }
		
		nation_designer_cost_multiplier = 0.75
		terrain_override = {
			2194 2193 978 979 2192 2191 2190 2189 782
		}
	}
	
	farmlands = {
		movement_cost = 1.00
		
		supply_limit = 9
		type = plains
		sound_type = plains
		color = { 137 104 165 }
		
		 #allowed_num_of_buildings = 1
		nation_designer_cost_multiplier = 1.1
		terrain_override = {
			1329 363 151 1402 3876 3881 330 3396 1326 1438 1446 2552 322 2862 1209 #MENA
			416 1317 445 422 412 3292 3824 405 457 442 3285 #Eran+CA
			2796 2435 2280 2283 3959 3955 3943 1032 3967 1026 2291 3956 2288 3953 2801 733 737 2233 730 1020 2279 2287 2282 735 1822 889 #Japan+Korea
			225 2311 1508 2312 2310 215 3370 217 227 #Iberia
			1346 1345 3381 103 114 3700 118 111 3869 2562 #Italy
			183 184 3375 167 89 4186 2354 203 2239 196 3372 1388 192 976 1387 2234 391 2307 88 1335 177 178 2356 63 #France
			3376 1426 147 146 2612 161 3785 1267 153 1270 #Balkans+Carpathia
			256 1531 1279 3758 2355 262 1844 2815 259 280 299 2848 276 4018 272 1393 1296 289 296 #Eastern Europe
			237 236 2386 1411 3326 1283 373 3335 248 #Atlantic Isles
			6 2755 15 14 1 #Scandinavia
			87 90 91 92 95 97 98 2360 2363 2370 2372 3863 2353 #low countries
			77 78 2187 3379 64 1360 3378 1365 3732 #Hochdeutschlands
			134 1510 83 265 268 270 1359 1274 #cisleithania
			1252 3821 3818 1350 3851 1373 1353 973 85 2623 #niederdeustchland
			1006 3654 3723 
			2628 3159 2630 532 3163 3161 545 3174 3166 2569 3145 542 5306 3173 549 3142 #South India
			2425 2426 3215 3905 2429 2670 601 2422 3908 2819 3226 3227 2319 3231 609 3933 604 610 3938 2324 3219 618 #Indochina
			595 3239 596 629 3924 3923 630 3927 2197 626 2104 2105 641 619 2216 658 #Austronesia
			684 2117 2605 4035 2249 707 5376 5374 704 705 5388 5372 5379 2492 697 5382 2468 5489 2170 2254 5391 5403 5392 5404 708 698 688 724 5473 5474 2472 2148 5405 689 #North China
			672 5432 710 675 2486 5478 2082 5460 5411 5401 5408 5393 5425 5424 5428 5426 5427 5431 682 2478 5465 5467 5406 5499 667 5436 5506 2797 2149 695 #South China
			
			#SchwarzerKaiser fixes
			45 106 107 113 206 232 538 541 544 560 1348 1520 2530 2533 2629 2756 3133 3155 3158 3698 3859 4006 4078 5294 5295 5300 5301 5302 5407
		}
	}
	
	floodplains = {
		movement_cost = 1.00
		
		supply_limit = 9
		type = plains
		sound_type = plains
		color = { 224 154 161 }
		
		 #allowed_num_of_buildings = 1
		nation_designer_cost_multiplier = 1.2
		terrain_override = {
			
			5393 663 2150 2607 5395 5397 2125 2147 5398 1068 5400 5399 694 1046 5416 5415 1089 2145 5414 5413 2272 5435 2480 2477 712 1172 5464 5459 670 5417 2494 5463 1337 5505 5449 685 2510 1143 2121 5440 5441 711 2073 2078 5497 680 2141 692 5418 1053 #South China
			699 1041 5385 701 702 2491 2560 5470 2252 5487 5403 696 5380 5402 #North China
			398 392 3826 358 2498 361 1338 2543 3003 1213 360 1214 4094 4093 1322 410 3087 3085 415 3086 #MENA
			426 417 458 #Greater Persia+CA
			2277 3948 2293 3946 #Japan+Korea
			1471 2410 2200 3532 #Mesoamerica
			104 2372 109 1378 1347 1377 #Italy
			5346 3185 5353 5344 5320 5337 5335 5317 5341 5318 5345 5355 5356 5358 5348 5357 5347 5326 2113 3102 3103 511 3111 521 3115 2163 522 3126 524 3127 2555 3128 3131 555 3132 2557 3130 2210 2632 2688 558 3202 2689 3183 3184 2693 3187 3188 3203 1588 3189 561 2696 567 563 2716 2717 2584 3108 #North India
			3135 5307 3172 3178 5324 3175 3204 5309 5322 5321 3136 516 3125 2709 3143 3190 3134 3191 2699 2690 3129 2705 3123 3109 510 564 3199 2112 5334 5336 5338 5339 5340 5342 5343 5352 5329 3101 #North India
			2687 3149 3142 1587 2212 2683 5303 507 5323 2627 3174 553 546 2673 3154 2674 539 3162 #South India
			3216 352 2427 584 600 3223 2821 2417 3932 605 2827 613 2395 3938 585 4219 #Indochina
			586 2823 568 503 3124 3176 3182 2306 2421 #SEA
			2830 2108 630 2109 2106 2110 #Austronesia
			2913 1497 2946 2947 #West Africa
			
			#SchwarzerKaiser fixes
			2721 5313 5314 5243 5244
		}
	}
	
	forest = {
		movement_cost = 1.50
		
		local_defensiveness = 0.10
		combat_width = -0.35
		
		supply_limit = 6
		type = forest
		sound_type = forest
		color = { 91 123 45 }
		
		nation_designer_cost_multiplier = 0.9
		terrain_override = {
			972 2186 1857 3992 264 3274 1048 1050 727 3247 3984 2546
			3650 3648 987 3647 3582 920 1462 947 3579 3580 2274
			957 2180 2198 2437 372 2580 290
			1030 1032 2286 3962 3966 3974 3636 3180 559
			5501 2326 #South China
			5482 5488 #North China
			1318 3090 3078 #Greater Persia+CA
			2298 2300 1019 1016 734 #Japan+Korea
			3801 326 2581 1444 #MENA
			3347 2567 3368 212 2368 3352 1421 #Iberia
			1858 119 #Italy
			2812 189 4228 1381 #France
			3755 1403 #Balkans+Carpathia
			2399 2832 2814 4025 42 271 39 1432 1302 34 2841 3982 2583 1079 2446 4201 #Eastern Europe
			3325 3324 328 #Atlantic Isles
			4 7 1259 29 31 32 1262 30 19 11 21 26 #Scandinavia
			1511 4004 #low countries
			2070 794 800 3457 3458 # SA
			924 913 3641 3644 3659 3651 3604 3613 3617 3623 3635 2182 3598 929 1456 3615 3616 1454 922 935 946 988 #NA
			1107 822 #AUSTRALIA
			999 3639 #Caucasus
			2890 1111 2886 1496 2887 2880 2884 1557 #West Africa
			
			#SchwarzerKaiser fixes
			3 49 58 66 74 135 140 150 235 238 273 291 292 306 312 923 948 969 986 1272 
			1349 1358 1509 1865 2547 2617 2618 2620 2842 2844 3253 3254 3399 3558 
			3561 3590 3602 3603 3622 3658 3665 3678 3683 3725 3728 3731 3735 3737 3742 
			3746 3751 3765 3766 3776 3820 3854 3856 3983 3987 3989 3990 3993 4011 4024
		}
	}
	
	hills = {
		movement_cost = 1.50
		
		defence = 1
		local_defensiveness = 0.25
		combat_width = -0.40
		
		supply_limit = 6
		type = hills
		sound_type = mountain
		color = { 135 70 0 }
		
		nation_designer_cost_multiplier = 0.85
		terrain_override = {
			3373 3862 2514 127 891 3446 376 791 3872 1108 260 3753
			1405 3463 3465 763 3468 3471 3469 760 3774 758 490 487 2188 3672 786 368 
			764 3702 782 1065 3474 1518 3942 1527 1226 3860 1382 2385 
			2366 193 1323 194 370 3382 204 2603 
			2471 2251 687 3543 120 3046 3890
			2793 1143 1043 2493 2142 692 2490 680 2606 2488 1053 679 2478 683 
			2731 473 428 128 3747 129 2383 2473 2313   1422 
			3263 3106 642 643 644 4045 3928 2432 2433 4044
			2377 1340 2094
			3544 856 3529 855 2403 3528 1468 3526 3525 
			3523 2644 2204 3626 3630 364 321 
			681 5444 5445 668 671 678 2464 710 5438 2462 5439 1760 5450 #South China
			5375 5484 5373 5380 5383  #North China
			3808 3807 2577 4234 3830 3836 3079 #Greater Persia+CA
			1017 1023 1025 2296 2281 3965 2294 2805 2804 2803 2802 2461 736 #Japan+Korea
			2308 1409 1408 210 3354 198 3360 207 #Iberia
			116 117 3699 1414 3701 2563 2564 2854 1413 2357 102 3703 121 #Italy
			1384 2550 #France
			1767 3773 2389 3777 2124 1424 1401 2137 157 2376 3754 1276 #Balkans+Carpathia
			263 258 1269 #Eastern Europe
			3323 409 246 242 1412 1416 3337 249 3328 #Atlantic Isles
			10 #Scandinavia
			94 93 #low countries
			65 69 3379 2615 2622 1361 1370 1363 3812 2757 3730 #Hochdeutschlands
			71 3739 3748 3822 #niederdeustchland
			518 2709 526 3140 3116 527 2211 3141 3170 2554 3171 3181 3104 2703 517 2723 2708 #North India
			533 3200 3147 2679 2680 530 3164 3146 2684 2681 2675 3156 3177 3153 2677 2244 3160 #South India
			3224 3232 2829 4212 2396 3234 2394 2393 616 611 #Indochina
			2214 657 653 632 648 647 3925 2107 #Austronesia
			492 1536 1537 499 500 2595 501 #Carribean
			355 343 2971 2972 4069 4070 4071				#MENA
			3629 940 3631 #NA
			3067 3066 3019 # Ethiopia
			2496 3031 1542 3316 1219 1220 3320 
			
			#SchwarzerKaiser fixes
			155 218 241 269 316 318 324 329 332 349 357 359 383 411 413 424 425 433 435 437 484 486 514 525 531 536 551 556 593 
			607 673 690 706 715 744 773 777 874 975 1136 1301 1316 1321 1328 1356 1366 1406 1440 1516 1535 2088 2118 2232 2247 
			2284 2275 2297 2305 2309 2317 2318 2418 2420 2507 2538 2541 2551 2578 2613 2614 2654 2694 2726 2732 2736 2750 2824 2857 
			2934 2943 3013 3014 3023 3088 3122 3150 3151 3186 3237 3240 3301 3314 3343 3356 3475 3671 3386 3387 3687 3684 3685 
			3784 3804 3832 3833 3864 3874 3879 3882 3911 3931 3949 3950 4001 4039 4061 4074 4124 4211 4214 4241 4243 4246 4247 
			4273 5225 5242 5293 5315 5316 5330 5332 5333 5354 5371 5381 5433 5468 5472 5475 5476 5490
		}
	}
	
	woods = {
		movement_cost = 1.25
		
		local_defensiveness = 0.05
		combat_width = -0.25
		
		supply_limit = 6
		type = forest
		sound_type = forest
		color = { 165 205 108 }
		
		nation_designer_cost_multiplier = 0.9
		
		terrain_override = {
			428 2536 191 2365 170 4008 2159 307 3642 3643 2146 2130 1109 2603 4111 132
			128 3245 1290 3787 161 2378 1217 2895 1084 2123 2516 1088
			4037 4031 731 723 726 3985 3986 1288 3514 845 2207 3988 3991 1292 294
			5500 5430 5419 5420 5421 5410 5448 5451 5456 5457 5422 5429 5437 #South China
			5378 2492 5481 5480 #North China
			429 464 3081 1445 468 3828 3849 3294 450 2724 #Greater Persia+CA
			1018 2278 1022 3968 2299 #Japan+Korea
			2540 2864 2861 3878 325 327 2238 3391 #MENA
			2368 2369 2473 3361 3865 3347 1423 3369 143 3351 2454 209 216 2314 #Iberia
			2851 123 3697 3866 2534 122 2852 #Italy
			2240 171 180 1512 2362 190 #France
			1307 130 254 255 309 2834 2833 283 1391 2398 2836 3398 1264 1265 1433 1430 3757 261 1281 2535 3759 3760 3981 3796 3980 274 2582 2439 1303 311 381 293 1289 4016 1280 308 #Eastern Europe
			1410 3334 247 3324 234 #Atlantic Isles
			5 1256 8 2 1258 26 18 17 21 #Scandinavia
			 #low countries
			3157 535 2570 534 543 2676 540 552 2243 3165 2707 2682 547 #South India
			3217 2370 3235 2423 4217 3233 3934 5360 2428 #Indochina
			598 597 594 2093 2097 642 4045 3921 620 3916 3915 2213 652 654 2095 3910 2828 #Austronesia
			489 1538 3404 2349 827 829 3455 3456 758 759 3477 3478 3481 3482 #South America
			1581 1166
			2900 2976 2973 1145 1142 1503 1128 1129 1122 2897 2898 2899 2961 2888 1551 1502 2789 2780 2794 2981 1146 2977 4267 4268 2777 1556 2927 2926 2925 1554 1553 2963 2778 2891 1127 2759 1229 2957 2764 1498 2910 2766 1525 2770 #West Africa
			2989 2988 1169 1580 4275 3007 4279 4248 4242 2970 1183 1178 1150 1579 1507 1189 4249 4251 4252 4254 4261 4263 4264 4265 4266 1201 3020 #East Africa
			3628 1663 1419 893 3589 3588 3595 1459 1697 962 3583 3645 3646 3647 945 3633 3632 982 984 968 3691 3610 3596 3600 2181 3592 942 944 3562 1457 3556 960 1489 3673 3674 3688 2785 3617 3618 #NA
			
			#SchwarzerKaiser fixes
			43 57 60 86 141 144 148 152 156 275 266 317 725 877 939 951 955 956 958 959 961 
			971 1253 1273 1364 1369 1441 1447 1557 2177 2374 2391 2450 2506 2553 2637 
			2754 2846 2880 2884 3246 3358 3388 3557 3574 3587 3666 3667 3726 3736 3749 3750 3763 3945 4036 4067
		}
	}
	
	mountain = {
		movement_cost = 2.0
		
		defence = 2
		attrition = 1
		local_defensiveness = 0.45
		combat_width = -0.60
		
		supply_limit = 5
		type = mountain
		sound_type = mountain
		color = { 44 40 45 }
		
		nation_designer_cost_multiplier = 0.75
		terrain_override = {
			205 3444 2348 2344 3438 784 2140 1085 1249 3538 1157 873 1306 2270
			3434 3435 3437 3436 3427 3428 3426 3423 3424 2340 3418 2067 3420 3421 3422 3429
			820 3612 936 3614 954 3621 3620 3624 1823 2199 2167 3570 3669 3912
			1464 1465 3675 3676 875 876 3681 2469 3668 2470 2441 3564 371 185 166 2625 
			3257 3261 665 686 2250 669 2259 3208 840 2412 860 880 3540 2099
			3300 3302 3848 1036 1407 3425 3417 3407 815 2402 3534 2671 3940 3021 
			2484 5423 2488 693 5409 5412 5461 5455 2085 2086 5443 5442 5447 5446 664 #South China
			709 5482 5387 5386 5479 3242 3243 3241 5488 5471 #North China
			3100 3831 3827 2559 3825 577 #Greater Persia+CA
			2286 3974 2290 2806 2328 2800 #Japan+Korea
			2932 2941 346 2933 3797 #MENA
			1420 211 #Iberia
			68 1376 110 2855 1390 #Italy
			3371 179 1385 1375 #France
			3871 1767 3779 2392 1392 1398 3786 158 3788 3792 #Balkans+Carpathia
			2536 2379 2236 3791 2633 4002 #Eastern Europe
			23 10 1266 3998 #Scandinavia
			3139 2686 3169 2685 3168 #North India
			3920 3919 2098 #Austronesia
			490 #carribean
			3224 2321 2727 580 #SEA
			995 1009 #Caucasus
			3892 # Amhara
			1215 
			
			#SchwarzerKaiser fixes
			22 62 76 162 197 523 554 562 565 579 661 662 666 691 732 894 1240 1277 1315 1443 
			1448 1449 1758 1759 2114 2144 2226 2255 2264 2265 2350 2351 2375 2463 2556 2566 
			2722 2739 2831 3017 3073 3080 3098 3110 3113 3114 3193 3196 3205 3209 3214 
			3336 3686 3790 3823 3857 4000 4097 4098 4112 4196 5327 5328 5331 5494 5498 5508
		}
	}
	
	desert_mountain = {
		movement_cost = 3.0
		
		defence = 2
		attrition = 1
		combat_width = -0.60
		local_defensiveness = 0.30
		
		supply_limit = 4
		type = mountain
		sound_type = desert
		color = { 147 148 119 }
		
		nation_designer_cost_multiplier = 0.75
		terrain_override = {
			2345 3076 384 2665 3445 2347 3441 2740 470 2810 2575 #MENA
			2715 3834 4030 3082 3099 #Greater Persia+CA
			1161
			883 2641 3537 861 857 855 882 # MESO
			1543 2316 2915 2928 2949 
		}
	}
	
	impassable_mountains = {
		movement_cost = 8.0
		
		defence = 6
		
		sound_type = desert
		color = { 128 128 128 }
	}
	
	grasslands = {
		movement_cost = 1.0
		
		supply_limit = 8
		type = plains
		sound_type = plains
		color = { 150 148 151 }
		
		 #allowed_num_of_buildings = 1
		nation_designer_cost_multiplier = 1
		terrain_override = {
			3028 3888 2666 2544 2660 2951 1144 1154 2978 4274 612 3225
			779 778 3454 781 3452 789 790 1057 3265 3267 4042 
			713 2266 3258 3259 3262 2248 4038 2253 3268 720 622 623 641 
			4093 2649 24 427 1573 3002 1216 2974 635 1642
			461 477 454 3846 3311 3306 3096 #Greater Persia+CA
			168 2329 169 #France
			4018 2545 1287 3397 2537 2401 297 37 4110 41 1263 3756 305 1297 302 1311 1082 1308 2438 #Eastern Europe
			3330 375 3331 3325 240 251 #Atlantic Isles
			1428 3720 13 16 #Scandinavia
			1372 1371 2451 #low countries
			79 #Hochdeutschlands
			2835 2621 3727 53 46 264 3813 3380 2449 2845 #niederdeustchland
			505 504 503 3119 2713 3138 2704 2631 2706 #North India
			1540 2197 1173
			3408 787 3504 3501 768 770 772 776 1486 #South America
			2157 #Alas pastures
			2599 2602 3522 1470 3524 # Meso
			906 908 910 1452 2178 916 914 3577 934 3565 915 917 2172 990 993 3637 925 3563 2171 3576 912 918 #NA
			284 4021 282 1431 285 4019 300 286 303 287 1304 2443 1312 475 1080 2442 472 3304 1071 4020 1296 4114 1077 1070 #Eurasia
			3016 # Fertile area around lake Tana, can turn to floodplains.
			
			#SchwarzerKaiser fixes
			54 100 159 1155 1196 1204 1437 2371 2843 2967 3333 3346 4250 4253 4255 4257 4258 4259 4276 4277 4278 4282
		}
	}
	
	plains = {
		movement_cost = 1.0
		
		supply_limit = 7
		type = plains
		sound_type = plains
		color = { 241 221 184 }
		
		 #allowed_num_of_buildings = 1
		nation_designer_cost_multiplier = 1
		terrain_override = {
			703 700 5469 728 3252 3244 2485 5390 5384 5377 #North China
			5458 #South China
			897 884 3553 997 #North America
			 #Mesoamerica
			3809 3810 3811 2576 3289 447 #Greater Persia+CA
			2634 2501 #MENA
			208 3353 2448 3363 #Iberia
			1387 170 187 188 2331 191 186 3374 1386 2332 2330 175 173 3861 #France
			3775 1848 3780 3781 1450 2436 3769 3770 3787 3783 2378 #Balkans+Carpathia
			1286 304 313 1194 298 3964 1429 301 295 #Eastern Europe
			3870 1285 2853 108 1355 #Italy
			374 3329 3327 2529 243 245 244 3005 #Atlantic Isles
			2616 1351 75 4005 1367 80 82 4010 81 974 2334 2359 #Hochdeutschlands
			977 50 4015 3745 59 3744 1352 56 3815 2813 3741 55 1368 51 1362 2364 3724 44 1357 4009 2367 97 #niederdeustchland
			4003 2561 1278 3730 #cisleithania
			2702 550 3118 3120 528 3117 520 2712 2711 2710 2714 3192 #North India
			2678 #South India
			3903 3904 2822 2322 602 2733 608 2397 3936 2825 2818 2319 3228 571 #Indochina
			628 2111 625 624	 #Austronesia
			1539 3546 485 #carribean
			941 943 1493 # NA
			
			#SchwarzerKaiser fixes
			70 230 239 529 895 896 898 899 900 903 905 919 949 1015 1024 1029 1275
			1460 2195 3148 3550 3555 3559 3566 3567 3568 3569 3571 3573 3575 3585 3734 3858 4007
		}
	}
	
	jungle = {
		movement_cost = 2.0
		
		defence = 1
		attrition = 1
		local_defensiveness = 0.10
		combat_width = -0.40
		
		supply_limit = 5
		type = jungle
		sound_type = jungle
		color = { 40 180 149 }
		
		nation_designer_cost_multiplier = 0.8
		terrain_override = {
			2787 2768 3473 2071 801 3488 3491 602 2753 1484 742 3930 2820
			674 3234 3915 3922 622 623 607 3341 3339 738 637 3342 3315 3926 #Austronesia
			743 835 826 1475 823 502 830 3402 3403 3505 #South America
			2647 3511 842 843 2416 2414 3513 836 2209 #Central AM
			2336 2337 572 2698 3195 #INDIA
			2419 2825 2322 3908 591 4043 2822 #SEA
			1113 1125 2892 2911 2762 2760 2758 1126 1503 2912 1128 2788 1550 2885 2889 2786 1131 1561 1552 # West Africa 
			
			#SchwarzerKaiser fixes
			581 582 614 750 766 769 771 808 846 1111 1496 2072 2100 2325 2558 2730 2817 2886 2887 2890 3152 
			3167 3179 3201 3459 3460 3462 3483 3484 3497 3507 3517 3909 3929 3935 3937 4079 4213 4215 5296 
			5297 5299 5304 5305
		}
	}
	
	marsh = {
		movement_cost = 2.0
		
		defence = 1
		attrition = 0.5
		combat_width = -0.40
		
		supply_limit = 5
		type = marsh
		sound_type = forest
		color = { 76 112 105 }
		
		nation_designer_cost_multiplier = 0.85
		terrain_override = {
			5389 5388 5434 5466 5394 5462 5396 #China
			1176 315 362 3597 3721 3722 3084 4092 3867 200 399 40 5325 5349 1293
			2840 2839 1394 2837 1395 2838 #Pinsk
			2380 2668 2089 2090 3401
			1134 2790 1549 1120 1119 2894 1123 2769 1560 2767 #West Africa
			921 926 927 928 1455 3593 3594 3696 1709 775
			1477 963 797 3503 4080 3492 2752 1474 839 1473 838 892
			3611 1451 938 933 2175 3606 931 1418 3552 911 3578 #NA
			
			#SchwarzerKaiser fixes
			3001
		}
	}
	
	desert = {
		movement_cost = 2
		
		attrition = 1
		local_defensiveness = -0.15
		
		supply_limit = 4
		type = desert
		sound_type = desert
		
		color = { 220 210 0 }
		
		nation_designer_cost_multiplier = 0.8
		terrain_override = {
			2743 2119 2268 3274 2747 2746 881 2638 1309
			3306 477 3309 2223 471 3299 3295 3298 3283 455 438 443 3286 
			462 439 441 386 446 390 3839 432 3095 3096 3094 3097 
			3284 3846 3297 3296 2221 2254 3287 1081 3312
			3210 3211 739 2257 3275 804 3411 3433 2342 3445
			2718 2719 2720 519 512 #North India
			1331 3015 3040 1575 3054 3060 3055 #Africa
			
			#SchwarzerKaiser fixes
			3885 5312
			#Removed
			#2721
		}
	}
	
	taiga = {
		movement_cost = 2.0
		
		attrition = 1
		local_defensiveness = 0.10
		combat_width = -0.35
		
		supply_limit = 5
		type = forest
		sound_type = forest
		
		color = { 128 200 250 }
		
		nation_designer_cost_multiplier = 0.9
		terrain_override = {
			1260 3997 891 2327 1261 35 279 278 4023 1072 1075 2548 
			1529 1074 2445 2154 2155 1040 1039 1038 1037 2744 2301 3248 1049 
			3249 1047 1044 1045 1052 3255 1051 1054 1059 2156 1063 1060 1064 1065 
			2153 1066 1078 981 980 3634 890 985 991 4202 4203 4204 
			2481 1000 1003 994 3638 3652 992 2196 1001 4205 
			3656 1002 3655 3653 1007 3661 1005 3662 1010 1008 
			1011 3663 2168 909 2169 2189 2190 3660 1004 3640 3250 3251 
			3270 2161 996 4206 4208 4209 4200 4194 1055 4195 1062 
			1056 4197 3994 314 288 1294 2440 1295 1343 2157 281
		}
	}
	
	
	tundra = {
		movement_cost = 1.5
		
		defence = 1
		attrition = 1
		
		supply_limit = 4
		type = arctic
		sound_type = plains
		
		color = { 200 225 250 }
		
		nation_designer_cost_multiplier = 0.9
		terrain_override = {
			33 277 2441 2152 2158 1036 1035 1034 1530 979 978 2194 2193 3670 2475 
			2160 1104 998 1517 1255
		}
	}
	
	coastline = {
		movement_cost = 1.0
		
		local_defensiveness = 0.10
		
		supply_limit = 6
		sound_type = sea
		color = { 200 128 0 }
		
		nation_designer_cost_multiplier = 0.95
		terrain_override = {
			23 27 233 337 350 3500 741 3499 1481 744 1490 745 746 747 1483 1095 4046 590
			749 3489 3486 753 3485 754 3480 1485 3479 755 3476 756 3470 4034 3795 2573 1299
			757 3467 3466 761 762 764 3464 765 767 751 1482 
			2185 3677 2184 3679 872 870 869 1824 3690 871 3689 878 1735 3894 3893 
			1228 1521 1519 1227 3898 3897 3896 3895 172 1298
			1098 28 3695 2640 3510 2245 2749 639 636
			112 2191 2192 4008 126 1533 228 621 2103 2737
			334 2896 2869 2962 676 677 1582 2881 2092 2091
			1164 1581 1165 1166 2982 2986 2983 1177 2985 1180 1151 2994 1181 1564 
			1190 1191 1186 1187 1188 1565 2352 2995 1195 3000 2996 2998 1198 1566 
			3032 3033 1199 #Somalia
			1506 2879 2975 1140 1505 1504 2775 1141 3816 
			1138 1139 2779 2776 2877 2878 2875 2572 
			2874 2768 2872 2773 
			4040 4041 1110 2871 2882 
			2434 3767 989 1710 2643 2598
			859 2642 864 3527 1711 854 849 851 847 2205 3519 2206 844 841 2208
			834 783 3782 748 2604
			806 809 812 3414 816
			2574 2867 2381 4060 4059 320 1435 3875 2635 1534 351 2868 353 4073 2663 2865 2863 340 #MENA
			3366 3367 2358 1284 #Iberia
			2276 1021 3947 2302 3957 3972 1014 1013 1012 #Japan+Korea
			1415 3868 2453 2241 #Italy
			2452 2571 136 137 138 2237 3873 142 1436 3383 164 #Balkans+Carpathia
			1354 3768 36 3400 #Eastern Europe
			1514 3719 1417 369 96 #Atlantic Isles
			9 25 1257 20 67 2515 1250 1251 #Scandinavia
			3817 2849 47 #niederdeustchland
			3238 4056 537 1248 421 1100 1102 1103 1101 573 5292 #South India
			574 420 2734 4050 592 4216 #Indochina
			407 4047 659 631 907 645 2430 651 655 2215 2588 2102 2101 2525 4048 1425 #Austronesia
			488 2591 #Carribean
			2873 2876 1175 2883  #AFRICA
			506 513 1097 1244 4012 4013 4014 2151 2608 1243 799 817 1087 1090 1091 1092 1093 1094 2126 2128 2129 2131 2132 2133 2134 2135 2136 2138 1106 2610 650 1239 1242 #AUSTRALIA
			970 1458 965 983 967 997 952 2174 #NA
			
			#SchwarzerKaiser fixes
			5218 5219 5222 5223 2866 
		}
	}
	
	coastal_desert = {
		movement_cost = 1.0
		
		attrition = 1
		local_defensiveness = -0.15
		
		supply_limit = 4
		type = desert
		sound_type = desert
		color = { 255 211 110 }
		
		
		nation_designer_cost_multiplier = 0.9
		
		
		terrain_override = {
			2964 1526 380 1585 3077 474 388 4095 1211 2650 1571 3043 393 397 396 395 394 467 2539 466 400 3068 465 402 3074 401 3887 356 1339 354 2528 4122 345 2870 2662 #MENA 
			2228 431 2235 2229 434 575 576 1332 3004 1208 #Greater Persia+CA
			1583 1162 2139 810 1158
			1491 2066 3430 3431 3432 2346 2165 831 # SOUTH AME
			1342 865 1733 879
			3038 3006 1202 1574 3039 1200 3050 3047 3044 3034 3035 3036 3037 #East Africa
			
			#SchwarzerKaiser fixes
			335 2859 
		}
	}
	
	 #drylands
	drylands = {
		movement_cost = 1.00
		
		supply_limit = 7
		type = plains
		sound_type = plains
		color = { 208 158 108 }
		
		nation_designer_cost_multiplier = 0.95
		terrain_override = {
			160 866 1466 862 3542 2639 1310 
			1467 3541 1734 885 887 3549 886 780 3453 868 867 2166 848 3536 3535 385
			853 1463 3539 858 3547 863 3548 1461 888 3551 2267 718 774
			722 2251 2257 2476 2256 5491 5487 2246 #North China
			1313 1314 2219 414 416 3279 3847 3843 3293 405 3811 436 2231 463 3278 2222 456 3305 2740 2745 2741 2743 476 2220 2742 3213 #Greater Persia+CA
			419 423 3900 1320 3089 2636 377 1327 1333 4062 325 328 323 382 331 3883 1755 4057 378 3886 2655 1334 2499 2315 2860 341 4075 4068 3095 3097 3842 2224 3093 3091 1319 1532 2940 2942 338 379 #MENA
			366 2751 181 220 1845 222 226 3357 214 209 217 3348 3349 231 1422 2310 182 333 3364 3365 224 213 219 3355 3362 221 2565 #Iberia
			2531 2532 2856 125 124 101 1513 105 1380 115 2858 2242 #Italy
			2361 201 2335 3377 174 176 202 1383 #France
			2388 131 1425 3384 1434 154 163 3385 2387 1591 1427 149 805 2373 3778 2390 #Balkans+Carpathia
			3793 2626 1400 3794 3877 1344 1300 3799 2549 2656 #Eastern Europe
			1163 1164 1568 #Africa
			1112 1449 2904 2905 2774 348 2916 2772 1116 1118 2959 2908 2923 2918 2920 2929 1559 1563 1221 1225 1499 # Western Africa
			1203 3061 3062 3063 3056 3057 3058 3059 1205 #Somalia
			
			#SchwarzerKaiser fixes
			875 5231
			#Removed
			#4007 4006 2756 2614 3734 1275
		}
	}
	
	 #highlands
	highlands = {
		movement_cost = 1.50
		
		defence = 1
		local_defensiveness = 0.25
		combat_width = -0.35
		
		supply_limit = 6
		type = hills
		sound_type = mountain
		color = { 135 70 50 }
		
		nation_designer_cost_multiplier = 0.9
		terrain_override = {
			2162 2260 2258 3207 2263 2262 2261 509 3107 2748
			3521 2407 3523 2408 2202 2406 852 3531
			798 3410 807 811 3412 813 3413 819 3415 3416 820 3419 3421
			2067 3423 3424 2340 2069 2068 3428 2339 2343 3436 3437 3435
			3434 3438 3426 3427 
			2467 2083 660 #China
			3884 3802 418 2664 1515 347 4072 336 2935 339	#MENA
			2225 3083 2227 3092 451 3291 453 #Greater Persia+CA
			2289  #Japan+Korea
			3359 199 223 1268 139 1405 1404 1247 #Europe
			252 253 3338 2512 #Atlantic Isles
			165 1374 1389 73 1254 #Hochdeutschlands
			569 583 2323 4218 3906 587 2728 588 2424 #Indochina
			832 793 3506 792 795 796 3409 3439 3440 3442 #America
			3899 1528 1569 3011 3065 1207 1206 1568 1576 1577 3010 3012 3008 3021 3041 #AFRICA
			2600 2601 2203 2204 2645 850 2201 2409 3533 2597 2405 3530 2404	1469 3509 2208 840 3518 # Meso
			1137 2906 2966 2765 2899 1121 1124 2907 # Western Africa
		}
	}
	
	savannah = {
		movement_cost = 1.00
		
		supply_limit = 6
		type = plains
		sound_type = plains
		color = { 201 214 148 }
		
		nation_designer_cost_multiplier = 0.95
		terrain_override = {
			1487 3451 781 1170 2982 2986 2983 1177 2991 1586 2970 1179 1507 
			2992 2968 1178 1183 1174 2993 2990 2969 1150 1579 1578 1193 1192 1492 1189 
			1153 1156 2980 1105 1130 1132 1133 1135 1223 1495 3472 3461 2979 1159
			1544 1555 2763 2781 1184
			2893 788 802 801 2075 4270 4271 4269 1558 4256
			2902 2903 2924 2948 2956 2958 2960 
			1160 1167 1171 1584 2792 
			3026 3025 3692 3045 3029 3030 1567 3064 2500 2953 1218 #East Africa
			1478 3502 830 833 3498 1086 2127 2919 2921 2950 2218 1114 2955 1541 2922 1117 2917 1546 1222 2945 
		}
	}
	
	 #steppe
	steppe = {
		movement_cost = 1.00
		
		supply_limit = 6
		type = plains
		sound_type = plains
		color = { 51 51 255 }
		
		nation_designer_cost_multiplier = 0.95
		terrain_override = {
			480 3276 1069 1067 2271 3272 1061 3271 3270 3269 719 3266 3264 
			721 3260 3256 1488 3448 3449 3450 3277 4199 4198 
			785 3447 3273 3310 4113 1076 479 3308 1073 2444 1083
		}
	}
}


 ##################################################################
 ### Graphical terrain
 ###		type	=	refers to the terrain defined above, "terrain category"'s 
 ### 	color 	= 	index in bitmap color table (see terrain.bmp)
 ###

terrain = {
	plains					= { type = plains			color = { 	0	 } }
	hills					= { type = hills			color = { 	1	 } }
	desert_mountain			= { type = mountain			color = { 	2	 } }
	desert					= { type = desert			color = { 	3	 } }
	grasslands				= { type = grasslands		color = { 	4	 } }
	
	terrain_5				= { type = mountain			color = { 	5	 } }
	mountain				= { type = mountain			color = { 	6	 } }
	desert_mountain_low		= { type = desert			color = { 	7	 } }
	forest					= { type = forest			color = { 	8	 } }
	marsh					= { type = marsh			color = { 	9	 } }
	
	terrain_10				= { type = marsh			color = { 	10	 } }
	terrain_11				= { type = desert			color = { 	11	 } }
	savannah				= { type = savannah			color = { 	12	 } }
	terrain_13				= { type = marsh			color = { 	13	 } }
	terrain_14				= { type = farmlands		color = { 	14	 } }
	
	ocean					= { type = ocean			color = { 	15	 } }
	snow					= { type = mountain 		color = { 	16	 } } # (SPECIAL CASE) Used to identify permanent snow
	inland_ocean_17 		= { type = inland_ocean		color = {	17	 } }
	high_hills				= { type = hills			color = { 	18	 } }
	coastal_desert_18		= { type = taiga			color = { 	19	 } }
	
	coastline				= { type = coastline		color = { 	36	 } }
	woods					= { type = woods			color = { 	255	 } }
	jungle					= { type = jungle			color = { 	254	 } }
	terrain_20				= { type = hills			color = { 	20	 } }
	terrain_21				= { type = hills			color = { 	21	 } }
	
	terrain_22				= { type = hills			color = { 	22	 } }
	terrain_23				= { type = hills			color = { 	23	 } }
	terrain_24				= { type = farmlands		color = { 	24	 } }
	terrain_25				= { type = farmlands		color = { 	25	 } }
	terrain_26				= { type = hills			color = { 	26	 } }
	
	terrain_27				= { type = hills			color = { 	27	 } }
	terrain_28				= { type = hills			color = { 	28	 } }
	terrain_29				= { type = desert_mountain	color = { 	29	 } } # Isthmus
	terrain_30				= { type = desert			color = { 	30	 } }
	terrain_31				= { type = marsh			color = { 	31	 } }
	
	terrain_32				= { type = plains			color = { 	32	 } }
	terrain_33				= { type = plains			color = { 	33	 } }
	terrain_34				= { type = plains			color = { 	34	 } }
	terrain_35				= { type = tundra			color = { 	35	 } }
}

 ##################################################################
 ### Tree terrain
 ###		terrain	=	refers to the terrain tag defined above
 ### 	color 	= 	index in bitmap color table (see tree.bmp)
 ###

tree =
{
	forest				= { terrain = forest 			color = { 	3 4 6 7 19 20	} }
	woods				= { terrain = woods 			color = { 	2 5 8 18	} }
	jungle				= { terrain = jungle 			color = { 	13 14 15	} }
	palms				= { terrain = desert 			color = { 	12	} }
	savana				= { terrain = grasslands 		color = { 	27 28 29 30	} }
}
