# DIT - Dithmarschen

government = peasants_republic government_rank = 1
mercantilism = 5
primary_culture = old_saxon
religion = catholic
technology_group = western
capital = 3722

1000.1.1 = {
	add_country_modifier = { name = title_3 duration = -1 }
	set_country_flag = title_3
	#set_variable = { which = "centralization_decentralization" value = 4 }
	add_absolutism = -100
	add_absolutism = 10
}
1356.1.1 = {
	monarch = {
		name = "Achtundvierziger"
		ADM = 3
		DIP = 3
		MIL = 5
		regent = yes
	}
}
1490.1.1 = { #Unkown before the battle of Hemmingstedt in 1500
	monarch = {
		name = "Wulf Isebrand"
		DIP = 3
		ADM = 4
		MIL = 5
	}
}
1506.1.1 = {
	monarch = {
		name = "Henning Swyn" #Alderman in Lunden, died 1533
		DIP = 4
		ADM = 4
		MIL = 4
	}
	
}
1533.1.1 = {
	religion = protestant
} # Council of the Forty-Eight turns the Ditmarsian Catholic Church into a Lutheran state church.
#1559 - Annexed by Denmark
