# PIN - Pinya

government = eastern_monarchy government_rank = 1
mercantilism = 0.0
primary_culture = burmese
religion = buddhism
technology_group = chinese
capital = 584

1000.1.1 = {
	add_country_modifier = { name = title_5 duration = -1 }
	set_country_flag = title_5
	#set_variable = { which = "centralization_decentralization" value = 3 }
	add_absolutism = -100
	add_absolutism = 20
}

1313.2.7 = {
	monarch = {
		name = "Thihathu"
		dynasty = "Myinsaing"
		ADM = 3
		DIP = 3
		MIL = 3
	}
}

1325.2.1 = {
	monarch = {
		name = "Uzana I"
		dynasty = "Myinsaing"
		ADM = 3
		DIP = 3
		MIL = 3
	}
}

1340.9.1 = {
	monarch = {
		name = "Kyawswa I"
		dynasty = "Myinsaing"
		ADM = 3
		DIP = 3
		MIL = 3
	}
}

1350.9.12 = {
	monarch = {
		name = "Kyawswa II"
		dynasty = "Myinsaing"
		ADM = 1
		DIP = 2
		MIL = 3
	}
	queen = {
		country_of_origin = SAG
		name = "Ommadanti"
		dynasty = "Pagan"
		birth_date = 1333.1.1
		death_date = 1380.1.1
		female = yes
		ADM = 3
		DIP = 3
		MIL = 3
	}
	heir = {
		name = "Narathu"
		monarch_name = "Narathu"
		dynasty = "Myinsaing"
		birth_date = 1345.12.7
		death_date = 1364.1.1
		claim = 95
		ADM = 2
		DIP = 3
		MIL = 1
	}
}

1359.1.1 = {
	monarch = {
		name = "Narathu"
		dynasty = "Myinsaing"
		ADM = 2
		DIP = 3
		MIL = 1
	}
	queen = {
		country_of_origin = SAG
		name = "Ommadanti"
		dynasty = "Pagan"
		birth_date = 1333.2.1
		death_date = 1380.1.1
		female = yes
		ADM = 3
		DIP = 3
		MIL = 3
	}
	heir = {
		name = "Uzana Pyaung"
		monarch_name = "Uzana Pyaung"
		dynasty = "Myinsaing"
		birth_date = 1324.1.1
		death_date = 1364.9.1
		claim = 95
		ADM = 1
		DIP = 1
		MIL = 1
	}
}

1364.6.1 = {
	monarch = {
		name = "Uzana Pyaung"
		dynasty = "Myinsaing"
		ADM = 1
		DIP = 1
		MIL = 1
	}
	queen = {
		country_of_origin = SAG
		name = "Ommadanti"
		dynasty = "Pagan"
		birth_date = 1333.1.1
		death_date = 1380.1.1
		female = yes
		ADM = 3
		DIP = 3
		MIL = 3
	}
}

1364.9.1 = {
	monarch = {
		name = "Thado Minbya"
		dynasty = "Myinsaing"
		ADM = 4
		DIP = 2
		MIL = 5
	}
	queen = {
		country_of_origin = SAG
		name = "Ommadanti"
		dynasty = "Pagan"
		birth_date = 1333.1.1
		death_date = 1380.1.1
		female = yes
		ADM = 3
		DIP = 3
		MIL = 3
	}
}
