# ZAZ - Zaporozhie Hetmanate

government = cossack_republic government_rank = 1
mercantilism = 0.0
technology_group = eastern
religion = orthodox
primary_culture = ukrainian
add_accepted_culture = crimean
add_accepted_culture = ruthenian
add_accepted_culture = russian
capital = 300	# Zaporozhia

1000.1.1 = {
	add_country_modifier = { name = title_5 duration = -1 }
	set_country_flag = title_5
	#set_variable = { which = "centralization_decentralization" value = 4 }
	add_absolutism = -100
	add_absolutism = 10
}

1506.1.1 = {
	monarch = {
		name = "Lyantskoronsky"
		ADM = 4
		DIP = 5
		MIL = 5
	}
}

1534.1.1 = {
	monarch = {
		name = "Kishka"
		ADM = 4
		DIP = 5
		MIL = 5
	}
}

1550.1.1 = {
	monarch = {
		name = "Vishnevetsky-Bayda"
		ADM = 4
		DIP = 4
		MIL = 4
	}
}

1563.1.1 = {
	monarch = {
		name = "M. Vishnevetsky"
		ADM = 3
		DIP = 3
		MIL = 3
	}
}

1573.1.1 = {
	monarch = {
		name = "Ivan Svirgovsky"
		ADM = 2
		DIP = 2
		MIL = 2
	}
}

1575.1.1 = {
	monarch = {
		name = "Bogdan Ruzhinsky"
		ADM = 2
		DIP = 2
		MIL = 2
	}
}

1576.1.1 = {
	monarch = {
		name = "Ivan II Pidkova"
		ADM = 2
		DIP = 2
		MIL = 2
	}
}

1577.1.1 = {
	monarch = {
		name = "Yakiv I Shakh"
		ADM = 2
		DIP = 2
		MIL = 2
	}
}

1578.1.1 = {
	monarch = {
		name = "Lukyan Chornynsky"
		ADM = 2
		DIP = 2
		MIL = 2
	}
}

1580.1.1 = {
	monarch = {
		name = "Samiylo II"
		ADM = 2
		DIP = 2
		MIL = 2
	}
}

1585.1.1 = {
	monarch = {
		name = "Ruzhinsky"
		ADM = 2
		DIP = 2
		MIL = 2
	}
}

1585.6.1 = {
	monarch = {
		name = "Zakhar Kulaga"
		ADM = 2
		DIP = 2
		MIL = 2
	}
}

1586.1.1 = {
	monarch = {
		name = "Lukyan Chornsky"
		ADM = 2
		DIP = 2
		MIL = 2
	}
}

1588.1.1 = {
	monarch = {
		name = "Semen I Skalozub"
		ADM = 2
		DIP = 2
		MIL = 2
	}
}

1589.1.1 = {
	monarch = {
		name = "V Chanovytsky"
		ADM = 2
		DIP = 2
		MIL = 2
	}
}

1590.1.1 = {
	monarch = {
		name = "K. Kosynsky"
		ADM = 2
		DIP = 2
		MIL = 2
	}
}

1593.1.1 = {
	monarch = {
		name = "G. Loboda"
		ADM = 3
		DIP = 3
		MIL = 2
	}
}

1596.2.2 = {
	monarch = {
		name = "Shaula, Krempsky & Nech"
		ADM = 2
		DIP = 2
		MIL = 2
	}
}

1596.11.3 = {
	monarch = {
		name = "Gnat Vassylevsky"
		ADM = 2
		DIP = 2
		MIL = 2
	}
}

1598.1.1 = {
	monarch = {
		name = "Baybuza & Polous"
		ADM = 2
		DIP = 2
		MIL = 2
	}
}

1600.1.1 = {
	monarch = {
		name = "Gavrylo Kortnevych"
		ADM = 2
		DIP = 2
		MIL = 2
	}
}

1601.1.1 = {
	monarch = {
		name = "Samiylo III Kishka"
		ADM = 2
		DIP = 2
		MIL = 2
	}
}

1602.1.1 = {
	monarch = {
		name = "Kortnevych & Kutskovych"
		ADM = 2
		DIP = 3
		MIL = 3
	}
}

1606.1.1 = {
	monarch = {
		name = "Izapovych"
		ADM = 2
		DIP = 2
		MIL = 2
	}
}

1606.6.1 = {
	monarch = {
		name = "Zborovsky"
		ADM = 4
		DIP = 4
		MIL = 4
	}
}

1609.1.1 = {
	monarch = {
		name = "Andriyevch"
		ADM = 3
		DIP = 2
		MIL = 3
	}
}

1610.1.1 = {
	monarch = {
		name = "Tyskinevych"
		ADM = 2
		DIP = 2
		MIL = 2
	}
}

1614.1.1 = {
	monarch = {
		name = "P. Sagaydachny"
		ADM = 4
		DIP = 5
		MIL = 6
	}
}

1622.1.1 = {
	monarch = {
		name = "Olifer Golub"
		ADM = 2
		DIP = 2
		MIL = 2
	}
}

1623.1.1 = {
	monarch = {
		name = "Koncha"
		ADM = 2
		DIP = 2
		MIL = 2
	}
}

1623.6.1 = {
	monarch = {
		name = "M. Doroshenko"
		ADM = 3
		DIP = 3
		MIL = 5
	}
}

1625.1.1 = {
	monarch = {
		name = "Pirsky"
		ADM = 2
		DIP = 2
		MIL = 2
	}
}

1625.6.1 = {
	monarch = {
		name = "M. Doroshenko"
		ADM = 3
		DIP = 3
		MIL = 5
	}
}

1626.1.1 = {
	monarch = {
		name = "K. Vovk"
		ADM = 2
		DIP = 2
		MIL = 2
	}
}

1628.1.1 = {
	monarch = {
		name = "G. Chorny"
		ADM = 2
		DIP = 2
		MIL = 2
	}
}

1628.6.1 = {
	monarch = {
		name = "Ivan V Sulyma"
		ADM = 3
		DIP = 3
		MIL = 3
	}
}

1629.1.1 = {
	monarch = {
		name = "G. Chorny"
		ADM = 2
		DIP = 2
		MIL = 2
	}
}

1630.1.1 = {
	monarch = {
		name = "Orendarenko"
		ADM = 2
		DIP = 2
		MIL = 2
	}
}

1631.1.1 = {
	monarch = {
		name = "Buybnovsky"
		ADM = 2
		DIP = 2
		MIL = 2
	}
}

1631.6.1 = {
	monarch = {
		name = "Ivan VI Kulaga "
		ADM = 2
		DIP = 2
		MIL = 2
	}
}

1632.1.1 = {
	monarch = {
		name = "Gavrylovych "
		ADM = 2
		DIP = 2
		MIL = 2
	}
}

1633.1.1 = {
	monarch = {
		name = "Samiylo IV Sulyma "
		ADM = 2
		DIP = 2
		MIL = 3
	}
}

1635.1.1 = {
	monarch = {
		name = "Ivan V Sylyma "
		ADM = 2
		DIP = 2
		MIL = 2
	}
}

1636.1.1 = {
	monarch = {
		name = "Vassyl Tomylenko "
		ADM = 2
		DIP = 2
		MIL = 2
	}
}

1637.1.1 = {
	monarch = {
		name = "Sava Kononovych "
		ADM = 2
		DIP = 2
		MIL = 2
	}
}

1637.6.1 = {
	monarch = {
		name = "Pavlyuk"
		ADM = 2
		DIP = 2
		MIL = 2
	}
}

1638.1.1 = {
	monarch = {
		name = "Ostryanytsya"
		ADM = 2
		DIP = 2
		MIL = 2
	}
}

1639.1.1 = {
	monarch = {
		name = "Gunya"
		ADM = 2
		DIP = 2
		MIL = 2
	}
}

1640.1.1 = {
	leader = {
		name = "Chmielnicki"
		type = general
		fire = 1
		shock = 3
		manuever = 5
		siege = 0
		death_date = 1657.8.6
	}
}

1641.1.1 = {
	monarch = {
		name = "Karpo P."
		ADM = 2
		DIP = 2
		MIL = 2
	}
}

1644.1.1 = {
	monarch = {
		name = "Gulak-Bulyuk"
		ADM = 2
		DIP = 2
		MIL = 2
	}
}

1648.1.1 = {
	monarch = {
		name = "Bogdan IV Khmelnitsky"
		ADM = 5
		DIP = 6
		MIL = 6
	}
}

1657.1.1 = {
	monarch = {
		name = "Ivan I Vygovskyy"
		ADM = 2
		DIP = 2
		MIL = 2
	}
}

1659.1.1 = {
	monarch = {
		name = "Yuriy Khmelnitsky"
		ADM = 4
		DIP = 5
		MIL = 5
	}
}

1663.1.1 = {
	monarch = {
		name = "Divisional Hetmans"
		ADM = 1
		DIP = 1
		MIL = 2
	}
}

1687.1.1 = {
	monarch = {
		name = "Ivan IV Mazep"
		ADM = 2
		DIP = 4
		MIL = 6
	}
}

1695.1.1 = {
	leader = {
		name = "Mazeppa"
		type = general
		fire = 2
		shock = 4
		manuever = 5
		siege = 0
		death_date = 1710.1.1
	}
}

1710.1.1 = {
	monarch = {
		name = "Ivan V Skoropadsky"
		ADM = 2
		DIP = 6
		MIL = 6
	}
}

1722.1.1 = {
	monarch = {
		name = "Pavlo II Polubotok"
		ADM = 2
		DIP = 2
		MIL = 3
	}
}

1727.1.1 = {
	monarch = {
		name = "Danylo Apostol"
		ADM = 1
		DIP = 4
		MIL = 4
	}
}

1750.1.1 = {
	monarch = {
		name = "Rozumovsky"
		ADM = 1
		DIP = 2
		MIL = 4
	}
}
